<?xml version="1.0" encoding="UTF-8" standalone="no"?>
<svg
   xmlns:dc="http://purl.org/dc/elements/1.1/"
   xmlns:cc="http://creativecommons.org/ns#"
   xmlns:rdf="http://www.w3.org/1999/02/22-rdf-syntax-ns#"
   xmlns:svg="http://www.w3.org/2000/svg"
   xmlns="http://www.w3.org/2000/svg"
   id="svg276"
   preserveAspectRatio="xMidYMid meet"
   viewBox="0 0 1009.8057 1009.1157"
   height="1009.1157pt"
   width="1009.8057pt"
   version="1.0">
  <defs
     id="defs280" />
  <metadata
     id="metadata2">
Created by potrace 1.15, written by Peter Selinger 2001-2017
<rdf:RDF>
  <cc:Work
     rdf:about="">
    <dc:format>image/svg+xml</dc:format>
    <dc:type
       rdf:resource="http://purl.org/dc/dcmitype/StillImage" />
    <dc:title></dc:title>
  </cc:Work>
</rdf:RDF>
</metadata>
  <g
     transform="translate(1542.2671,546.28662)"
     id="g2494">
    <ellipse
       style="fill:#ffffff;fill-opacity:0.97881356;stroke:#ffffff;stroke-width:6.81742859;stroke-miterlimit:4;stroke-dasharray:13.63485696, 13.63485696;stroke-dashoffset:0;stroke-opacity:1"
       id="path1087"
       cx="-1043.4482"
       cy="-47.991993"
       rx="491.98871"
       ry="482.97049" />
    <g
       transform="matrix(0.1,0,0,-0.1,-1549.2671,471.25782)"
       id="g274"
       style="fill:#EAB00C;fill-opacity:0.97881356;stroke:none">
      <path
         d="m 4725,10171 c -200,-12 -567,-68 -732,-112 -39,-10 -79,-19 -89,-19 -10,0 -56,-11 -103,-25 -47,-14 -117,-35 -156,-47 -62,-18 -117,-36 -235,-78 -39,-13 -128,-47 -205,-77 -131,-52 -348,-155 -480,-228 -27,-15 -66,-36 -85,-47 -61,-33 -125,-71 -130,-77 -3,-4 -16,-12 -30,-19 -30,-14 -54,-29 -97,-59 -17,-13 -36,-23 -41,-23 -6,0 -12,-4 -14,-9 -3,-7 -36,-31 -107,-76 -8,-5 -21,-15 -28,-22 -7,-6 -28,-21 -48,-33 -19,-12 -35,-26 -35,-31 0,-5 -4,-9 -10,-9 -11,0 -199,-144 -216,-166 -6,-8 -15,-14 -19,-14 -4,0 -17,-10 -29,-22 -12,-13 -53,-50 -91,-83 -87,-76 -302,-290 -380,-380 -33,-37 -72,-81 -87,-97 -44,-46 -213,-263 -291,-374 -53,-76 -161,-241 -183,-279 -6,-11 -36,-63 -67,-115 -52,-90 -188,-356 -228,-447 -11,-24 -28,-63 -39,-87 -11,-24 -20,-47 -20,-53 0,-5 -11,-33 -25,-61 -14,-29 -25,-55 -25,-59 0,-4 -9,-30 -19,-58 -50,-132 -79,-220 -135,-415 -38,-134 -103,-440 -116,-545 -5,-38 -15,-122 -24,-185 -17,-129 -36,-453 -36,-605 0,-359 52,-824 126,-1125 9,-36 20,-83 24,-105 3,-22 17,-74 29,-115 13,-41 32,-106 44,-145 11,-38 31,-98 44,-133 12,-34 23,-67 23,-73 0,-5 9,-29 20,-51 11,-23 20,-47 20,-54 0,-6 12,-38 26,-70 14,-33 35,-81 46,-109 95,-226 260,-543 359,-687 11,-15 19,-29 19,-32 0,-6 61,-98 70,-106 3,-3 23,-32 44,-65 38,-58 174,-245 186,-255 3,-3 50,-59 105,-125 107,-131 124,-149 279,-305 182,-184 449,-420 475,-420 6,0 11,-4 11,-8 0,-4 25,-25 56,-47 31,-22 63,-47 72,-55 8,-8 23,-19 32,-25 10,-5 36,-23 60,-40 24,-16 50,-35 59,-40 9,-6 44,-29 79,-53 35,-23 66,-42 69,-42 3,0 19,-10 36,-22 18,-13 41,-28 52,-34 11,-6 36,-20 55,-31 115,-67 163,-93 172,-93 5,0 22,-8 36,-18 15,-10 52,-30 82,-44 30,-14 99,-47 152,-72 54,-25 100,-46 104,-46 3,0 24,-9 47,-19 23,-10 74,-31 112,-45 39,-15 94,-36 123,-48 29,-11 67,-24 85,-28 18,-4 52,-15 77,-23 484,-167 1206,-266 1733,-238 452,24 877,93 1212,196 44,14 112,34 150,46 92,28 200,66 253,90 23,10 48,19 54,19 6,0 36,12 67,26 31,14 76,35 101,46 25,11 68,30 95,43 28,13 82,38 120,56 39,18 72,35 75,38 3,3 44,26 93,50 48,24 87,48 87,53 0,4 7,8 15,8 9,0 28,8 43,18 15,11 45,30 67,44 22,14 54,33 70,44 17,10 35,21 40,24 17,9 160,104 165,110 3,4 32,25 65,48 33,23 101,74 150,112 181,141 234,189 455,410 187,187 270,276 270,291 0,4 6,12 14,16 15,8 185,223 240,303 18,26 38,53 45,61 7,8 37,52 67,99 30,47 72,113 94,146 22,34 52,84 67,112 16,28 40,73 55,99 83,148 278,565 278,595 0,8 4,18 9,24 9,9 66,164 81,219 4,17 15,50 23,75 155,460 246,1088 234,1615 -7,331 -49,705 -108,952 -10,45 -19,90 -19,100 0,16 -10,54 -70,263 -42,148 -109,349 -136,407 -7,17 -14,35 -14,41 0,5 -14,41 -31,78 -16,38 -37,85 -45,104 -16,37 -46,101 -86,185 -27,58 -179,338 -187,345 -6,5 -29,45 -58,101 -7,15 -20,32 -28,39 -8,7 -15,16 -15,21 0,7 -57,96 -70,109 -3,3 -23,32 -44,65 -22,33 -45,65 -50,70 -6,6 -15,17 -21,26 -68,106 -374,469 -396,469 -5,0 -9,5 -9,11 0,19 -231,241 -381,365 -53,44 -102,86 -110,92 -16,14 -142,112 -179,140 -14,11 -54,39 -90,64 -36,24 -96,65 -133,91 -38,26 -70,47 -73,47 -3,0 -33,19 -67,41 -34,23 -71,45 -82,50 -11,5 -47,24 -80,44 -67,39 -302,156 -410,205 -38,18 -82,38 -97,46 -14,8 -31,14 -38,14 -6,0 -30,9 -54,19 -51,24 -117,49 -171,65 -22,7 -58,20 -79,29 -22,10 -51,20 -65,23 -14,3 -53,14 -86,24 -117,35 -241,68 -335,89 -210,46 -340,71 -367,71 -15,0 -89,9 -163,20 -112,17 -198,21 -500,24 -201,3 -423,1 -495,-3 z m 735,-361 c 165,-10 351,-35 570,-76 250,-48 534,-131 774,-226 55,-22 123,-49 149,-59 270,-108 751,-388 1008,-589 349,-273 643,-569 893,-900 514,-681 823,-1455 923,-2310 26,-220 25,-832 0,-1035 C 9720,4165 9617,3762 9465,3385 9071,2412 8336,1574 7425,1060 7254,964 7032,855 6895,802 6835,778 6774,754 6760,748 6702,724 6499,657 6386,626 6066,537 5755,484 5415,460 c -448,-30 -932,12 -1390,120 -625,148 -1263,455 -1774,854 -404,315 -775,718 -1053,1141 -191,292 -366,639 -480,950 -130,356 -207,679 -257,1080 -5,39 -15,180 -22,315 -10,211 -10,281 4,505 25,385 65,620 182,1045 22,81 93,283 133,380 19,47 41,103 49,125 26,74 201,419 273,540 126,211 294,449 435,615 626,741 1394,1243 2315,1513 208,61 405,101 730,148 179,26 627,36 900,19 z"
         id="path4"
         style="fill:#EAB00C;fill-opacity:0.97881356" />
      <path
         d="m 4840,9460 c -206,-10 -523,-58 -735,-112 -358,-90 -618,-186 -930,-343 -616,-311 -1104,-723 -1549,-1307 -36,-48 -66,-90 -66,-92 0,-2 -28,-46 -63,-97 -299,-446 -516,-975 -630,-1544 -62,-310 -72,-417 -71,-830 0,-341 2,-396 23,-540 53,-374 124,-657 248,-990 62,-167 85,-219 168,-385 216,-432 469,-788 796,-1120 543,-550 1177,-924 1939,-1143 560,-161 1284,-197 1881,-92 287,50 590,134 839,233 160,64 199,80 305,132 770,375 1405,957 1845,1690 157,261 328,637 405,890 156,510 213,908 202,1415 -10,465 -66,811 -199,1225 -320,998 -999,1858 -1892,2397 -117,70 -432,235 -494,258 -21,8 -71,28 -112,45 -41,18 -93,38 -115,45 -22,8 -80,28 -130,45 -49,17 -110,37 -135,44 -533,154 -964,203 -1530,176 z m 770,-129 c 366,-47 673,-121 1000,-244 165,-62 543,-243 622,-298 14,-11 29,-19 33,-19 11,0 293,-188 379,-252 818,-619 1387,-1504 1600,-2488 130,-603 127,-1214 -10,-1830 -112,-506 -352,-1048 -656,-1480 -302,-429 -687,-804 -1128,-1100 -133,-89 -362,-222 -465,-269 -22,-10 -69,-32 -105,-49 C 6626,1184 6357,1091 6080,1026 5555,903 4941,885 4410,976 3287,1168 2290,1806 1639,2750 c -104,151 -238,378 -308,525 -86,177 -114,242 -178,410 -81,213 -183,610 -208,805 -3,25 -13,97 -23,160 -14,94 -17,183 -17,485 0,330 3,387 23,530 44,306 97,538 182,795 134,404 303,739 568,1122 158,229 466,567 682,748 36,30 74,63 85,73 75,68 331,250 472,335 603,364 1209,557 1938,616 137,11 596,-3 755,-23 z"
         id="path6"
         style="fill:#EAB00C;fill-opacity:0.97881356" />
      <path
         d="m 4990,9175 v -65 h 100 100 v 34 c 0,18 3,48 6,65 l 7,31 h -107 -106 z"
         id="path8"
         style="fill:#EAB00C;fill-opacity:0.97881356" />
      <path
         d="m 5336,9200 c -3,-19 -6,-47 -6,-62 0,-30 5,-32 132,-43 l 67,-5 5,32 c 15,97 15,97 -18,103 -17,2 -63,6 -103,7 l -71,4 z"
         id="path10"
         style="fill:#EAB00C;fill-opacity:0.97881356" />
      <path
         d="m 4683,9223 c -47,-5 -50,-12 -36,-97 l 6,-39 96,8 c 53,3 97,8 99,10 2,1 0,30 -4,64 l -7,61 -56,-2 c -31,-1 -75,-3 -98,-5 z"
         id="path12"
         style="fill:#EAB00C;fill-opacity:0.97881356" />
      <path
         d="m 5687,9163 c -15,-87 -15,-88 63,-101 39,-7 83,-12 99,-12 27,0 28,2 34,57 7,65 4,68 -60,77 -23,3 -63,9 -87,12 l -43,6 z"
         id="path14"
         style="fill:#EAB00C;fill-opacity:0.97881356" />
      <path
         d="m 4415,9185 c -5,-2 -36,-9 -68,-15 l -59,-12 6,-36 c 13,-76 18,-92 25,-88 3,3 45,10 91,16 47,6 88,14 92,18 3,4 1,33 -5,65 -10,55 -11,57 -41,56 -17,0 -35,-2 -41,-4 z"
         id="path16"
         style="fill:#EAB00C;fill-opacity:0.97881356" />
      <path
         d="m 6035,9113 c -4,-15 -11,-41 -16,-57 -13,-43 -12,-45 29,-51 20,-4 63,-15 94,-25 32,-10 60,-16 62,-12 8,13 36,115 33,119 -2,1 -39,12 -83,23 -43,11 -87,23 -96,26 -13,4 -19,-2 -23,-23 z"
         id="path18"
         style="fill:#EAB00C;fill-opacity:0.97881356" />
      <path
         d="m 4080,9109 c -19,-5 -58,-16 -87,-24 l -52,-16 21,-60 c 15,-46 24,-59 37,-55 9,3 51,15 94,27 l 79,23 -7,34 c -15,83 -21,88 -85,71 z"
         id="path20"
         style="fill:#EAB00C;fill-opacity:0.97881356" />
      <path
         d="m 4890,9053 c -19,-2 -80,-8 -135,-14 l -100,-11 -173,-173 c -124,-124 -170,-177 -166,-189 10,-27 -23,-66 -56,-66 -33,0 -70,30 -70,58 0,31 39,64 71,60 25,-4 45,13 181,149 l 153,153 -50,-6 c -80,-9 -252,-43 -360,-70 -168,-43 -150,-29 -153,-121 -3,-76 -1,-83 24,-108 20,-20 24,-32 19,-53 -7,-32 -31,-52 -59,-52 -27,0 -40,9 -55,37 -13,26 0,70 24,79 12,5 15,24 15,85 v 79 l -27,-6 c -56,-12 -292,-99 -423,-156 -74,-32 -135,-58 -137,-58 -2,0 -3,-42 -3,-93 0,-81 3,-96 20,-112 24,-22 26,-67 4,-89 -23,-24 -70,-20 -88,6 -21,30 -20,54 4,78 17,17 20,33 20,100 0,44 -3,80 -6,80 -4,0 -46,-21 -93,-47 -317,-173 -616,-389 -850,-617 l -83,-81 373,-3 374,-2 237,237 c 202,202 236,241 232,260 -9,35 20,73 56,73 36,0 60,-23 60,-60 0,-36 -23,-60 -58,-60 -22,0 -74,-47 -272,-245 l -245,-245 h -400 -401 l -50,-52 c -105,-112 -108,-116 -94,-133 11,-13 68,-15 440,-15 h 428 l 79,63 c 197,159 438,306 687,418 320,145 711,247 1056,275 66,6 79,10 108,37 l 32,31 v 293 293 l -27,-2 c -16,0 -44,-3 -63,-5 z"
         id="path22"
         style="fill:#EAB00C;fill-opacity:0.97881356" />
      <path
         d="m 5020,8763 c 0,-291 0,-297 -22,-320 l -21,-23 h 143 143 l -21,23 c -22,23 -22,29 -22,320 v 297 h -100 -100 z"
         id="path24"
         style="fill:#EAB00C;fill-opacity:0.97881356" />
      <path
         d="m 5260,8767 v -293 l 33,-32 c 26,-25 42,-32 72,-32 53,0 357,-44 453,-66 116,-25 307,-80 402,-115 47,-17 96,-34 110,-39 69,-23 160,-72 183,-100 59,-70 54,-151 -13,-224 l -39,-42 87,-87 87,-87 h 721 c 638,0 723,2 734,15 14,17 12,19 -105,143 l -49,52 h -401 -400 l -240,240 c -191,191 -245,240 -268,242 -18,2 -38,13 -50,29 -16,23 -17,30 -7,50 35,65 104,47 112,-29 2,-27 39,-69 237,-267 l 235,-235 h 375 375 l -59,61 c -71,72 -267,241 -380,326 -131,99 -284,198 -447,288 l -153,86 -3,-105 c -2,-95 -1,-107 18,-126 22,-22 27,-69 8,-88 -16,-16 -70,-16 -86,0 -20,20 -15,76 8,90 18,12 20,24 20,129 v 115 l -92,42 c -168,74 -460,182 -494,182 -2,0 -4,-44 -4,-98 0,-86 3,-101 20,-117 41,-37 14,-105 -42,-105 -52,0 -80,76 -38,102 18,12 20,24 20,124 v 110 l -127,32 c -152,37 -307,68 -382,77 l -54,6 156,-154 c 136,-136 158,-154 181,-150 37,7 66,-21 66,-63 0,-37 -21,-54 -64,-54 -28,0 -56,33 -56,66 0,14 -52,74 -160,182 -88,88 -166,164 -173,170 -12,10 -101,23 -259,37 l -68,6 z"
         id="path26"
         style="fill:#EAB00C;fill-opacity:0.97881356" />
      <path
         d="m 6372,9023 c -8,-15 -25,-89 -23,-102 0,-3 19,-10 43,-17 24,-7 63,-19 87,-29 24,-9 47,-12 51,-8 11,13 42,104 38,109 -6,5 -170,64 -180,64 -4,0 -11,-8 -16,-17 z"
         id="path28"
         style="fill:#EAB00C;fill-opacity:0.97881356" />
      <path
         d="m 3708,8993 c -95,-34 -96,-35 -88,-62 16,-57 41,-93 58,-86 9,4 49,18 87,32 39,14 71,27 73,28 2,2 -5,30 -15,63 l -18,59 z"
         id="path30"
         style="fill:#EAB00C;fill-opacity:0.97881356" />
      <path
         d="m 6706,8912 c -2,-4 -14,-31 -25,-58 l -19,-51 90,-41 c 50,-23 92,-41 93,-39 10,11 56,110 53,113 -5,5 -177,84 -183,84 -2,0 -6,-4 -9,-8 z"
         id="path32"
         style="fill:#EAB00C;fill-opacity:0.97881356" />
      <path
         d="m 3395,8862 c -114,-53 -109,-45 -79,-105 15,-29 28,-53 29,-55 1,-1 43,16 92,39 89,41 90,42 78,68 -6,14 -18,40 -26,58 l -14,31 z"
         id="path34"
         style="fill:#EAB00C;fill-opacity:0.97881356" />
      <path
         d="m 7000,8715 c -18,-31 -31,-57 -29,-59 7,-5 171,-96 174,-96 2,0 18,23 35,51 37,61 39,58 -72,118 l -76,42 z"
         id="path36"
         style="fill:#EAB00C;fill-opacity:0.97881356" />
      <path
         d="m 3070,8694 c -41,-25 -77,-48 -80,-50 -2,-3 9,-30 25,-59 l 29,-55 41,24 c 22,13 58,34 80,46 22,12 43,24 47,26 9,6 -44,107 -58,111 -5,1 -43,-18 -84,-43 z"
         id="path38"
         style="fill:#EAB00C;fill-opacity:0.97881356" />
      <path
         d="m 7301,8540 c -17,-28 -31,-52 -31,-54 0,-6 162,-117 165,-114 2,2 19,26 38,53 l 34,50 -21,16 c -43,32 -144,99 -149,99 -3,0 -19,-23 -36,-50 z"
         id="path40"
         style="fill:#EAB00C;fill-opacity:0.97881356" />
      <path
         d="m 2779,8509 c -41,-29 -78,-55 -82,-59 -5,-5 8,-30 28,-58 l 38,-50 66,45 c 102,71 99,64 61,122 -17,28 -33,51 -34,51 -2,0 -36,-23 -77,-51 z"
         id="path42"
         style="fill:#EAB00C;fill-opacity:0.97881356" />
      <path
         d="m 7587,8341 c -21,-27 -37,-50 -37,-53 0,-3 34,-33 76,-67 l 75,-62 39,43 c 22,24 39,48 40,54 0,9 -73,73 -140,121 -14,10 -22,5 -53,-36 z"
         id="path44"
         style="fill:#EAB00C;fill-opacity:0.97881356" />
      <path
         d="m 2492,8290 c -40,-34 -72,-64 -72,-68 0,-4 18,-27 39,-51 l 38,-44 75,64 76,64 -33,45 c -18,24 -37,46 -42,47 -5,2 -41,-24 -81,-57 z"
         id="path46"
         style="fill:#EAB00C;fill-opacity:0.97881356" />
      <path
         d="m 7849,8114 -46,-45 74,-72 74,-71 47,47 47,48 -55,51 c -107,99 -89,94 -141,42 z"
         id="path48"
         style="fill:#EAB00C;fill-opacity:0.97881356" />
      <path
         d="m 2225,8049 -69,-70 44,-42 c 24,-23 45,-42 46,-42 1,0 34,31 74,68 l 73,68 -44,45 c -24,24 -46,44 -49,44 -3,-1 -36,-32 -75,-71 z"
         id="path50"
         style="fill:#EAB00C;fill-opacity:0.97881356" />
      <path
         d="m 8097,7870 c -31,-27 -44,-46 -40,-55 5,-7 34,-42 67,-78 l 58,-66 49,41 48,41 -18,26 c -11,14 -41,50 -68,80 l -48,53 z"
         id="path52"
         style="fill:#EAB00C;fill-opacity:0.97881356" />
      <path
         d="m 1988,7790 -67,-77 51,-38 51,-39 49,54 c 85,96 85,95 47,127 -64,55 -58,57 -131,-27 z"
         id="path54"
         style="fill:#EAB00C;fill-opacity:0.97881356" />
      <path
         d="m 6256,7621 -178,-178 39,-6 c 21,-4 420,-7 887,-7 h 849 l 96,95 96,95 h -710 -710 l -90,90 c -49,50 -92,90 -95,90 -3,0 -85,-80 -184,-179 z"
         id="path56"
         style="fill:#EAB00C;fill-opacity:0.97881356" />
      <path
         d="m 8320,7604 c -25,-20 -47,-37 -49,-39 -3,-3 43,-68 115,-164 4,-4 104,69 104,76 0,7 -114,163 -120,163 -3,0 -25,-16 -50,-36 z"
         id="path58"
         style="fill:#EAB00C;fill-opacity:0.97881356" />
      <path
         d="m 2069,7593 c -40,-45 -91,-111 -173,-228 l -78,-110 561,-5 561,-5 74,-72 73,-73 h 432 c 418,0 432,1 451,20 24,24 48,25 78,4 22,-15 30,-57 14,-80 -24,-37 -71,-37 -102,0 -11,14 -66,16 -449,16 h -436 l -80,80 -80,80 -560,-2 -560,-3 -64,-110 c -35,-60 -90,-164 -123,-230 -32,-66 -63,-128 -69,-138 -27,-48 11,-21 120,86 l 118,117 h 862 863 l 72,-70 73,-70 h 194 c 156,0 199,-3 215,-15 27,-20 469,-22 481,-1 17,29 51,38 83,21 24,-13 30,-22 30,-50 0,-58 -60,-85 -100,-45 -19,19 -31,20 -225,18 l -204,-3 182,-185 c 100,-102 195,-195 211,-207 40,-31 122,-32 159,-3 45,36 199,194 218,225 23,36 25,96 5,133 -22,41 -617,629 -649,641 -19,7 -226,11 -613,11 -612,0 -628,1 -663,43 -12,15 -46,17 -310,17 h -297 l -110,110 c -121,122 -141,131 -185,83 z"
         id="path60"
         style="fill:#EAB00C;fill-opacity:0.97881356" />
      <path
         d="m 2285,7530 90,-90 h 276 277 l -5,43 c -5,45 10,89 42,121 15,15 -17,16 -377,16 h -393 z"
         id="path62"
         style="fill:#EAB00C;fill-opacity:0.97881356" />
      <path
         d="m 7984,7510 -111,-110 h -919 -919 l -772,-769 c -486,-483 -768,-771 -759,-774 7,-3 16,-17 20,-32 10,-38 -16,-75 -52,-75 -20,0 -41,-14 -75,-48 -26,-26 -47,-52 -47,-57 0,-28 48,-90 136,-179 126,-126 167,-145 245,-112 35,14 1399,1358 1399,1378 0,6 -76,8 -208,6 -198,-3 -209,-4 -236,-25 -35,-28 -47,-28 -76,-5 -26,21 -30,66 -7,89 22,22 64,19 91,-6 21,-20 32,-21 252,-21 h 229 l 145,145 145,145 h -90 c -79,0 -92,-2 -103,-20 -16,-25 -63,-26 -85,-2 -24,26 -21,68 5,86 30,22 42,20 76,-9 27,-23 38,-25 125,-25 94,0 96,0 137,35 37,31 49,35 97,35 58,0 115,-25 127,-55 4,-13 37,-15 197,-15 h 191 l 82,80 c 45,44 89,80 97,80 8,0 22,13 32,29 21,36 73,61 127,61 49,0 73,-11 121,-56 l 35,-34 391,2 391,3 -61,90 c -34,50 -93,132 -132,183 -96,125 -96,125 -241,-18 z"
         id="path64"
         style="fill:#EAB00C;fill-opacity:0.97881356" />
      <path
         d="m 1789,7536 c -57,-76 -74,-107 -62,-115 65,-47 96,-62 103,-49 12,20 52,76 78,108 12,15 22,32 22,37 0,5 -22,25 -48,45 l -48,35 z"
         id="path66"
         style="fill:#EAB00C;fill-opacity:0.97881356" />
      <path
         d="m 8520,7319 c -25,-16 -46,-33 -48,-38 -2,-5 7,-24 20,-44 13,-19 35,-55 50,-81 l 28,-47 52,31 c 29,16 52,36 52,44 -2,18 -94,166 -103,165 -3,0 -26,-14 -51,-30 z"
         id="path68"
         style="fill:#EAB00C;fill-opacity:0.97881356" />
      <path
         d="m 1584,7223 c -59,-105 -58,-103 -45,-103 6,0 29,-11 51,-25 22,-14 43,-25 47,-25 6,1 85,126 101,161 2,6 -44,41 -94,72 -7,4 -30,-28 -60,-80 z"
         id="path70"
         style="fill:#EAB00C;fill-opacity:0.97881356" />
      <path
         d="m 7235,7140 -80,-80 h -188 c -168,0 -188,-2 -183,-16 3,-9 6,-38 6,-65 v -49 h 265 265 v 145 c 0,80 -1,145 -3,145 -1,0 -38,-36 -82,-80 z"
         id="path72"
         style="fill:#EAB00C;fill-opacity:0.97881356" />
      <path
         d="m 7724,7133 c 36,-49 76,-103 88,-121 13,-18 31,-44 41,-57 l 18,-25 h 302 301 l 114,-116 c 62,-64 116,-113 119,-110 12,11 -193,409 -251,489 l -20,27 h -388 -389 z"
         id="path74"
         style="fill:#EAB00C;fill-opacity:0.97881356" />
      <path
         d="m 8697,7021 c -26,-15 -50,-30 -53,-33 -4,-5 69,-162 82,-177 6,-7 114,49 114,59 0,13 -64,139 -82,162 -12,15 -17,14 -61,-11 z"
         id="path76"
         style="fill:#EAB00C;fill-opacity:0.97881356" />
      <path
         d="m 1425,6929 c -62,-122 -62,-114 2,-143 30,-15 56,-26 57,-26 5,0 89,180 85,182 -2,2 -27,16 -56,31 l -52,28 z"
         id="path78"
         style="fill:#EAB00C;fill-opacity:0.97881356" />
      <path
         d="m 1670,6785 -115,-115 h 766 765 l 12,34 c 7,19 29,48 48,65 l 35,31 h 206 207 l -49,50 -49,50 h -856 -855 z"
         id="path80"
         style="fill:#EAB00C;fill-opacity:0.97881356" />
      <path
         d="m 6790,6705 v -195 h 101 101 l 82,80 82,80 h 82 82 v 115 115 h -265 -265 z"
         id="path82"
         style="fill:#EAB00C;fill-opacity:0.97881356" />
      <path
         d="m 7902,6878 c 9,-13 39,-65 68,-115 l 52,-93 h 331 332 l -115,115 -115,115 h -283 -284 z"
         id="path84"
         style="fill:#EAB00C;fill-opacity:0.97881356" />
      <path
         d="m 8839,6704 -56,-26 25,-61 c 13,-34 30,-77 38,-94 l 13,-33 58,22 c 32,12 59,23 61,24 5,3 -70,194 -77,194 -3,0 -31,-12 -62,-26 z"
         id="path86"
         style="fill:#EAB00C;fill-opacity:0.97881356" />
      <path
         d="m 1302,6652 c -6,-15 -22,-58 -37,-95 -14,-38 -25,-70 -23,-72 2,-1 29,-12 61,-24 l 58,-21 10,28 c 6,15 19,50 29,77 10,28 21,58 25,67 5,13 -2,21 -32,33 -84,36 -80,36 -91,7 z"
         id="path88"
         style="fill:#EAB00C;fill-opacity:0.97881356" />
      <path
         d="m 1489,6619 c -6,-12 -15,-34 -19,-48 -5,-14 -27,-75 -49,-136 -22,-60 -41,-113 -41,-117 0,-5 153,-8 339,-8 h 339 l 7,31 c 13,57 73,176 100,198 41,32 97,44 145,31 32,-9 68,-38 166,-136 l 126,-124 h 156 157 l 80,-80 81,-80 219,2 219,3 -200,201 c -113,113 -209,218 -220,240 l -19,39 -787,3 -787,2 z"
         id="path90"
         style="fill:#EAB00C;fill-opacity:0.97881356" />
      <path
         d="m 7085,6560 -80,-80 h -107 -108 v -110 c 0,-116 -9,-149 -53,-197 l -20,-23 h 224 224 l 78,78 77,77 v 168 167 h -78 -77 z"
         id="path92"
         style="fill:#EAB00C;fill-opacity:0.97881356" />
      <path
         d="m 8040,6637 c 0,-2 6,-17 14,-33 33,-66 89,-192 108,-241 l 19,-53 h 340 c 186,0 339,2 339,4 0,8 -87,249 -104,289 l -16,37 h -350 c -193,0 -350,-2 -350,-3 z"
         id="path94"
         style="fill:#EAB00C;fill-opacity:0.97881356" />
      <path
         d="m 8960,6380 c -43,-14 -54,-22 -52,-36 6,-43 51,-169 61,-172 6,-2 35,4 65,12 53,16 55,17 46,44 -43,139 -54,172 -59,171 -3,-1 -31,-9 -61,-19 z"
         id="path96"
         style="fill:#EAB00C;fill-opacity:0.97881356" />
      <path
         d="m 1175,6278 c -9,-35 -21,-76 -26,-92 -5,-16 -9,-32 -9,-37 0,-11 111,-32 120,-22 9,10 36,97 45,145 l 7,36 -55,16 c -30,9 -57,16 -59,16 -3,0 -13,-28 -23,-62 z"
         id="path98"
         style="fill:#EAB00C;fill-opacity:0.97881356" />
      <path
         d="m 1356,6233 c -27,-86 -66,-240 -66,-262 0,-19 5,-21 74,-21 h 74 l 64,-65 65,-65 h 171 170 l 17,73 c 15,65 58,214 98,340 l 15,47 h -333 -333 z"
         id="path100"
         style="fill:#EAB00C;fill-opacity:0.97881356" />
      <path
         d="m 2640,6276 c 0,-2 102,-106 226,-230 l 226,-226 h 66 67 l 145,145 145,145 h -230 -230 l -85,85 -85,85 h -122 c -68,0 -123,-2 -123,-4 z"
         id="path102"
         style="fill:#EAB00C;fill-opacity:0.97881356" />
      <path
         d="m 8200,6274 c 0,-3 16,-53 35,-111 29,-89 59,-198 89,-325 l 6,-28 h 168 168 l 69,70 69,70 h 73 c 40,0 73,4 73,9 0,21 -30,150 -53,231 l -25,85 -336,3 c -185,1 -336,0 -336,-4 z"
         id="path104"
         style="fill:#EAB00C;fill-opacity:0.97881356" />
      <path
         d="m 7245,6180 -69,-70 h -231 -230 l 150,-150 150,-150 h 56 56 l 91,94 c 50,52 94,105 97,118 3,12 5,69 3,126 l -3,103 z"
         id="path106"
         style="fill:#EAB00C;fill-opacity:0.97881356" />
      <path
         d="m 6581,6016 -91,-91 190,-190 191,-190 109,115 109,115 -44,3 c -42,3 -51,9 -208,167 l -164,163 z"
         id="path108"
         style="fill:#EAB00C;fill-opacity:0.97881356" />
      <path
         d="m 3405,5940 -160,-159 -57,-1 h -57 l 116,-116 116,-116 190,190 189,189 -86,86 c -47,48 -87,87 -89,87 -2,0 -75,-72 -162,-160 z"
         id="path110"
         style="fill:#EAB00C;fill-opacity:0.97881356" />
      <path
         d="m 9085,6053 c -11,-2 -36,-9 -56,-14 l -36,-9 20,-100 c 15,-72 25,-99 34,-96 7,3 35,8 63,12 29,4 50,12 50,19 0,43 -38,196 -48,194 -4,-1 -16,-3 -27,-6 z"
         id="path112"
         style="fill:#EAB00C;fill-opacity:0.97881356" />
      <path
         d="m 1085,5904 c -16,-78 -17,-97 -6,-103 17,-11 100,-23 111,-16 7,4 32,148 31,180 0,9 -79,34 -107,35 -6,0 -19,-43 -29,-96 z"
         id="path114"
         style="fill:#EAB00C;fill-opacity:0.97881356" />
      <path
         d="m 8768,5871 c -27,-26 -48,-50 -48,-54 0,-4 33,-7 73,-7 h 73 l 47,48 c 26,26 47,51 47,55 0,4 -33,7 -72,6 l -73,-1 z"
         id="path116"
         style="fill:#EAB00C;fill-opacity:0.97881356" />
      <path
         d="m 3577,5709 -188,-189 111,-110 111,-110 h 166 165 l 105,105 c 93,93 103,107 92,122 -18,21 -330,333 -355,354 -18,16 -27,8 -207,-172 z"
         id="path118"
         style="fill:#EAB00C;fill-opacity:0.97881356" />
      <path
         d="m 6392,5827 c -78,-79 -91,-110 -77,-183 5,-29 29,-60 117,-150 114,-117 153,-144 208,-144 27,0 46,14 116,82 46,45 84,86 84,92 0,11 -360,376 -370,376 -3,0 -38,-33 -78,-73 z"
         id="path120"
         style="fill:#EAB00C;fill-opacity:0.97881356" />
      <path
         d="m 8920,5825 -44,-45 h -101 -100 l -134,-135 -134,-135 h 174 174 l 118,118 119,119 -7,49 c -12,77 -16,79 -65,29 z"
         id="path122"
         style="fill:#EAB00C;fill-opacity:0.97881356" />
      <path
         d="m 1254,5804 -7,-56 119,-119 119,-119 h 170 170 l -135,135 -135,135 h -100 -101 l -39,40 c -21,22 -42,40 -46,40 -4,0 -11,-25 -15,-56 z"
         id="path124"
         style="fill:#EAB00C;fill-opacity:0.97881356" />
      <path
         d="m 1731,5656 c 96,-96 125,-120 130,-108 4,10 12,58 18,107 7,50 14,98 17,108 5,16 -6,17 -141,17 h -147 z"
         id="path126"
         style="fill:#EAB00C;fill-opacity:0.97881356" />
      <path
         d="m 8340,5768 c 0,-7 7,-48 15,-91 8,-43 15,-94 15,-113 0,-19 3,-34 8,-34 4,0 63,56 132,125 l 125,125 h -148 c -111,0 -147,-3 -147,-12 z"
         id="path128"
         style="fill:#EAB00C;fill-opacity:0.97881356" />
      <path
         d="m 8881,5594 -115,-114 h -193 -194 l 8,-67 c 10,-86 10,-509 0,-545 l -7,-28 h 195 195 l 116,-116 c 63,-64 117,-114 119,-112 10,10 26,232 31,433 6,212 -13,563 -34,636 -7,26 -10,23 -121,-87 z"
         id="path130"
         style="fill:#EAB00C;fill-opacity:0.97881356" />
      <path
         d="m 9101,5703 -44,-4 7,-67 c 12,-122 18,-144 33,-138 8,4 37,6 64,6 h 50 l -5,48 c -3,26 -8,73 -11,105 -6,51 -9,57 -28,55 -12,-1 -42,-3 -66,-5 z"
         id="path132"
         style="fill:#EAB00C;fill-opacity:0.97881356" />
      <path
         d="m 1237,5672 c -3,-16 -13,-94 -23,-173 -26,-229 -8,-879 25,-879 3,0 56,50 116,110 l 110,110 h 190 190 v 320 320 h -190 -190 l -111,111 c -111,111 -111,111 -117,81 z"
         id="path134"
         style="fill:#EAB00C;fill-opacity:0.97881356" />
      <path
         d="m 1032,5554 c -6,-54 -10,-99 -9,-100 1,-2 32,-4 67,-6 l 65,-3 9,93 c 4,51 6,96 3,98 -3,3 -32,8 -65,11 l -59,5 z"
         id="path136"
         style="fill:#EAB00C;fill-opacity:0.97881356" />
      <path
         d="m 5693,5128 c -311,-312 -362,-368 -368,-400 -13,-69 1,-95 114,-211 58,-60 118,-115 133,-123 15,-8 49,-14 76,-14 39,0 58,6 92,31 l 43,31 -30,13 c -29,12 -43,32 -43,61 0,22 38,54 64,54 17,0 87,64 268,245 l 246,245 h 137 137 l -98,100 c -92,94 -100,100 -138,100 -39,0 -47,6 -156,115 l -115,115 z"
         id="path138"
         style="fill:#EAB00C;fill-opacity:0.97881356" />
      <path
         d="m 4065,5370 -110,-110 h -147 c -82,0 -148,-2 -148,-5 0,-3 43,-48 95,-100 l 96,-95 h 52 52 l 238,-245 c 178,-182 245,-245 262,-245 37,0 56,-11 66,-38 11,-29 -10,-68 -42,-80 -17,-7 80,-107 639,-662 362,-360 702,-698 756,-750 l 97,-95 607,-7 c 334,-4 762,-10 951,-13 l 344,-6 111,-110 c 109,-107 111,-109 157,-109 46,0 49,2 97,62 54,69 202,282 202,292 0,3 -254,6 -565,6 h -564 l -86,85 -86,85 h -424 -424 l -26,-26 c -19,-19 -31,-23 -48,-18 -35,10 -47,24 -47,54 0,54 61,79 100,40 19,-19 33,-20 453,-20 h 432 l 80,-80 80,-80 h 576 576 l 29,43 c 32,48 195,366 211,412 6,17 14,38 18,48 17,42 -28,10 -135,-98 l -115,-115 h -875 -876 l -39,40 -39,40 h -201 c -215,0 -254,8 -299,59 -18,20 -27,21 -230,21 -200,0 -212,-1 -224,-20 -17,-27 -77,-28 -92,-1 -25,47 0,91 50,91 18,0 34,-8 43,-20 14,-19 23,-20 206,-18 l 192,3 -949,948 c -523,521 -954,947 -959,947 -4,0 -58,-49 -118,-110 z"
         id="path140"
         style="fill:#EAB00C;fill-opacity:0.97881356" />
      <path
         d="m 9108,5353 c -16,-4 -18,-18 -18,-104 v -99 h 71 72 l -6,68 c -4,37 -7,84 -7,105 v 37 l -47,-1 c -27,-1 -56,-3 -65,-6 z"
         id="path142"
         style="fill:#EAB00C;fill-opacity:0.97881356" />
      <path
         d="m 1020,5200 v -100 h 60 60 v 100 100 h -60 -60 z"
         id="path144"
         style="fill:#EAB00C;fill-opacity:0.97881356" />
      <path
         d="m 6063,4788 c -210,-211 -242,-246 -236,-266 5,-22 17,-13 137,107 l 131,131 180,-180 180,-180 187,187 c 104,103 188,192 188,197 0,5 -54,62 -120,128 l -120,118 h -143 -142 z"
         id="path146"
         style="fill:#EAB00C;fill-opacity:0.97881356" />
      <path
         d="m 4142,4765 c 138,-140 255,-255 259,-255 5,0 9,11 9,24 0,33 -462,486 -496,486 -18,0 31,-55 228,-255 z"
         id="path148"
         style="fill:#EAB00C;fill-opacity:0.97881356" />
      <path
         d="m 9087,4903 c -3,-54 -5,-99 -4,-100 1,-1 30,-5 63,-8 l 61,-7 7,32 c 3,18 6,66 6,106 v 74 h -64 -63 z"
         id="path150"
         style="fill:#EAB00C;fill-opacity:0.97881356" />
      <path
         d="m 1020,4876 c 0,-40 3,-88 6,-106 l 7,-32 61,7 c 34,4 62,8 64,10 1,1 0,46 -4,99 l -7,96 h -63 -64 z"
         id="path152"
         style="fill:#EAB00C;fill-opacity:0.97881356" />
      <path
         d="m 3574,4914 c -16,-8 -59,-44 -94,-79 l -65,-65 190,-190 190,-190 63,63 c 74,72 92,102 92,152 0,54 -18,80 -137,197 -133,131 -168,147 -239,112 z"
         id="path154"
         style="fill:#EAB00C;fill-opacity:0.97881356" />
      <path
         d="m 8420,4802 c 0,-4 57,-65 128,-135 l 127,-127 h 100 99 l 52,-51 52,-51 11,63 11,64 -122,122 -123,123 h -167 c -93,0 -168,-3 -168,-8 z"
         id="path156"
         style="fill:#EAB00C;fill-opacity:0.97881356" />
      <path
         d="m 1358,4683 -116,-118 5,-53 c 3,-29 9,-54 13,-57 4,-2 28,16 53,40 l 45,45 h 99 98 l 130,130 130,130 h -170 -170 z"
         id="path158"
         style="fill:#EAB00C;fill-opacity:0.97881356" />
      <path
         d="m 8376,4758 c -2,-18 -10,-75 -18,-125 l -14,-93 h 145 146 l -125,125 c -69,69 -126,125 -127,125 -1,0 -4,-15 -7,-32 z"
         id="path160"
         style="fill:#EAB00C;fill-opacity:0.97881356" />
      <path
         d="m 1725,4660 -120,-120 h 144 144 l -6,28 c -3,15 -11,69 -18,120 -7,50 -15,92 -19,92 -3,0 -59,-54 -125,-120 z"
         id="path162"
         style="fill:#EAB00C;fill-opacity:0.97881356" />
      <path
         d="m 6665,4570 -189,-190 34,-36 c 59,-62 142,-144 146,-144 2,0 79,76 172,169 148,148 174,170 205,173 l 35,3 -103,108 c -58,59 -106,107 -107,107 -2,0 -89,-85 -193,-190 z"
         id="path164"
         style="fill:#EAB00C;fill-opacity:0.97881356" />
      <path
         d="m 3285,4640 c -90,-90 -97,-100 -73,-100 22,0 60,-34 194,-170 92,-93 173,-170 178,-170 6,1 51,38 100,84 l 90,84 -188,183 c -103,101 -190,185 -194,187 -4,1 -52,-43 -107,-98 z"
         id="path166"
         style="fill:#EAB00C;fill-opacity:0.97881356" />
      <path
         d="m 9066,4649 c -6,-17 -26,-152 -26,-172 0,-10 20,-18 61,-26 34,-7 62,-11 64,-9 5,5 37,200 33,203 -2,2 -31,7 -65,10 -49,6 -64,5 -67,-6 z"
         id="path168"
         style="fill:#EAB00C;fill-opacity:0.97881356" />
      <path
         d="m 1110,4607 c -30,-5 -56,-10 -57,-11 -4,-4 23,-196 28,-200 4,-4 118,20 124,26 2,2 -3,32 -10,68 -8,36 -14,77 -15,92 0,35 -4,36 -70,25 z"
         id="path170"
         style="fill:#EAB00C;fill-opacity:0.97881356" />
      <path
         d="m 6860,4355 -155,-155 h 240 240 l 80,-80 80,-80 h 115 115 l -235,235 -235,235 h -45 c -45,0 -46,-1 -200,-155 z"
         id="path172"
         style="fill:#EAB00C;fill-opacity:0.97881356" />
      <path
         d="m 8336,4498 c -2,-7 -16,-65 -31,-128 -23,-100 -69,-258 -90,-313 -7,-16 11,-17 331,-15 l 338,3 18,60 c 10,33 28,106 41,163 l 23,102 h -81 -81 l -69,70 -69,70 h -164 c -121,0 -164,-3 -166,-12 z"
         id="path174"
         style="fill:#EAB00C;fill-opacity:0.97881356" />
      <path
         d="m 8720,4502 c 0,-4 19,-27 43,-50 l 43,-42 h 79 80 l -52,50 -53,50 h -70 c -38,0 -70,-4 -70,-8 z"
         id="path176"
         style="fill:#EAB00C;fill-opacity:0.97881356" />
      <path
         d="m 1500,4435 -64,-65 h -79 -79 l 6,-47 c 4,-27 16,-79 26,-118 10,-38 24,-89 30,-112 l 11,-43 h 334 c 184,0 335,3 335,6 0,3 -11,38 -24,77 -29,88 -60,198 -82,295 l -16,72 h -167 -167 z"
         id="path178"
         style="fill:#EAB00C;fill-opacity:0.97881356" />
      <path
         d="m 3043,4398 c -55,-57 -106,-113 -112,-125 -6,-12 -11,-63 -11,-115 v -92 l 68,67 68,67 h 239 l 240,1 -155,149 c -147,142 -157,150 -195,150 -38,0 -46,-6 -142,-102 z"
         id="path180"
         style="fill:#EAB00C;fill-opacity:0.97881356" />
      <path
         d="m 9005,4294 c -4,-16 -15,-60 -25,-97 l -18,-68 23,-9 c 12,-5 42,-11 67,-15 l 44,-7 17,79 c 10,43 20,88 23,100 6,22 5,23 -88,39 -35,6 -38,4 -43,-22 z"
         id="path182"
         style="fill:#EAB00C;fill-opacity:0.97881356" />
      <path
         d="m 1157,4263 c -21,-2 -40,-10 -43,-17 -4,-11 39,-183 48,-192 4,-3 110,24 115,30 3,3 1,20 -5,38 -5,18 -15,59 -22,91 -12,62 -6,59 -93,50 z"
         id="path184"
         style="fill:#EAB00C;fill-opacity:0.97881356" />
      <path
         d="m 2992,4097 -72,-72 v -173 -172 h 78 77 l 80,80 80,80 h 107 108 v 89 c 0,109 8,133 68,194 l 46,47 h -250 -250 z"
         id="path186"
         style="fill:#EAB00C;fill-opacity:0.97881356" />
      <path
         d="m 6925,3925 241,-245 h 797 797 l 11,28 c 6,15 33,89 60,165 l 48,137 -341,-2 -340,-3 -32,-80 c -66,-162 -88,-191 -155,-206 -84,-19 -113,-2 -267,152 l -139,139 h -140 -140 l -80,80 -80,80 h -241 -241 z"
         id="path188"
         style="fill:#EAB00C;fill-opacity:0.97881356" />
      <path
         d="m 1375,3978 c 6,-34 20,-74 73,-213 l 30,-80 352,-3 351,-2 -16,32 c -49,98 -105,226 -105,238 0,5 -5,21 -12,35 l -11,25 h -334 -335 z"
         id="path190"
         style="fill:#EAB00C;fill-opacity:0.97881356" />
      <path
         d="m 8897,3902 c -15,-48 -27,-91 -28,-96 0,-5 26,-17 57,-28 46,-16 59,-17 65,-6 11,16 61,179 57,183 -6,5 -102,35 -112,35 -6,0 -23,-39 -39,-88 z"
         id="path192"
         style="fill:#EAB00C;fill-opacity:0.97881356" />
      <path
         d="m 4533,3950 c -13,-5 -104,-90 -204,-190 l -181,-180 h 194 c 182,0 194,1 206,20 26,42 102,14 102,-38 0,-48 -77,-73 -102,-32 -12,19 -24,20 -220,20 h -208 l -147,-145 -146,-145 h 64 c 53,0 66,3 77,20 31,50 113,4 98,-55 -12,-46 -93,-54 -109,-11 -5,13 -22,16 -83,16 h -77 l -46,-46 c -83,-84 -132,-101 -204,-70 -39,16 -87,70 -87,97 0,18 -9,19 -182,19 h -183 l -97,-97 c -54,-53 -98,-101 -98,-108 0,-14 -46,-58 -77,-74 -32,-16 -99,-14 -136,6 -18,9 -49,36 -70,60 l -39,43 h -389 c -214,0 -389,-3 -389,-6 0,-15 186,-281 228,-326 21,-23 34,-28 72,-28 45,0 47,2 155,110 l 110,110 h 945 l 944,-1 314,313 c 172,172 320,325 328,340 15,28 18,100 6,131 -11,27 -222,238 -249,248 -30,11 -91,11 -120,-1 z"
         id="path194"
         style="fill:#EAB00C;fill-opacity:0.97881356" />
      <path
         d="m 1245,3923 c -22,-9 -41,-17 -42,-18 -3,-2 56,-175 63,-187 3,-4 21,0 42,9 20,8 47,19 59,24 l 22,8 -18,48 c -10,26 -25,67 -31,91 -15,48 -29,52 -95,25 z"
         id="path196"
         style="fill:#EAB00C;fill-opacity:0.97881356" />
      <path
         d="m 3160,3725 -85,-85 h -77 -78 v -110 -110 h 265 265 v 195 195 h -103 -102 z"
         id="path198"
         style="fill:#EAB00C;fill-opacity:0.97881356" />
      <path
         d="m 8774,3577 -40,-94 45,-21 c 80,-36 76,-37 96,10 10,24 27,62 37,85 10,23 18,48 18,55 0,8 -23,23 -52,34 -29,10 -55,20 -58,22 -3,1 -23,-40 -46,-91 z"
         id="path200"
         style="fill:#EAB00C;fill-opacity:0.97881356" />
      <path
         d="m 1675,3530 110,-110 h 268 c 148,0 267,3 265,8 -1,4 -29,53 -61,110 l -58,102 h -317 -317 z"
         id="path202"
         style="fill:#EAB00C;fill-opacity:0.97881356" />
      <path
         d="m 7160,3627 c 0,-31 -52,-113 -82,-132 -29,-17 -55,-20 -205,-23 -95,-2 -173,-7 -173,-11 0,-4 8,-15 18,-24 17,-16 92,-17 878,-17 h 859 l 110,110 110,110 h -758 c -615,0 -757,-2 -757,-13 z"
         id="path204"
         style="fill:#EAB00C;fill-opacity:0.97881356" />
      <path
         d="m 1378,3601 -56,-26 13,-35 c 25,-70 65,-150 74,-150 15,0 111,50 110,58 0,4 -19,46 -42,93 l -42,86 z"
         id="path206"
         style="fill:#EAB00C;fill-opacity:0.97881356" />
      <path
         d="m 1510,3609 c 0,-29 163,-354 237,-471 l 23,-38 h 385 c 212,0 385,2 385,4 0,3 -38,58 -84,123 -47,65 -92,128 -101,141 -16,22 -17,22 -303,22 h -287 l -115,115 c -106,106 -140,132 -140,104 z"
         id="path208"
         style="fill:#EAB00C;fill-opacity:0.97881356" />
      <path
         d="m 2920,3243 v -148 l 83,83 82,82 h 183 182 v 65 65 h -265 -265 z"
         id="path210"
         style="fill:#EAB00C;fill-opacity:0.97881356" />
      <path
         d="m 8627,3268 c -27,-49 -47,-91 -45,-92 21,-15 99,-56 106,-56 8,0 102,162 102,176 0,2 -26,17 -58,33 l -57,29 z"
         id="path212"
         style="fill:#EAB00C;fill-opacity:0.97881356" />
      <path
         d="m 1518,3284 c -27,-13 -48,-28 -48,-32 1,-19 90,-167 102,-169 7,-2 34,11 61,27 l 47,30 -45,83 c -24,45 -50,83 -57,84 -7,1 -34,-9 -60,-23 z"
         id="path214"
         style="fill:#EAB00C;fill-opacity:0.97881356" />
      <path
         d="m 8450,2970 -53,-81 24,-17 c 13,-9 37,-27 54,-38 l 30,-22 52,79 c 28,43 54,83 57,88 6,9 -82,71 -101,71 -6,0 -34,-36 -63,-80 z"
         id="path216"
         style="fill:#EAB00C;fill-opacity:0.97881356" />
      <path
         d="m 1698,2987 c -26,-18 -48,-36 -48,-41 0,-8 80,-135 101,-160 7,-8 92,44 104,64 5,9 -94,170 -105,169 -3,0 -26,-15 -52,-32 z"
         id="path218"
         style="fill:#EAB00C;fill-opacity:0.97881356" />
      <path
         d="m 2285,2790 -90,-90 h 710 710 l 105,-105 105,-105 195,195 195,195 h -920 -920 z"
         id="path220"
         style="fill:#EAB00C;fill-opacity:0.97881356" />
      <path
         d="m 7294,2868 c 24,-60 29,-92 19,-129 l -10,-39 h 371 371 l -90,90 -90,90 h -288 c -227,0 -288,-3 -283,-12 z"
         id="path222"
         style="fill:#EAB00C;fill-opacity:0.97881356" />
      <path
         d="m 8256,2701 c -30,-38 -57,-74 -58,-80 -2,-6 19,-28 46,-50 l 50,-39 63,80 c 35,44 61,84 58,88 -5,9 -93,70 -99,70 -2,0 -29,-31 -60,-69 z"
         id="path224"
         style="fill:#EAB00C;fill-opacity:0.97881356" />
      <path
         d="m 1898,2704 c -27,-20 -48,-40 -48,-44 0,-11 83,-120 108,-143 19,-17 21,-17 65,20 25,21 46,41 46,44 1,6 -118,159 -122,159 -1,0 -23,-17 -49,-36 z"
         id="path226"
         style="fill:#EAB00C;fill-opacity:0.97881356" />
      <path
         d="m 2141,2646 c -27,-29 -27,-29 52,-118 l 60,-68 h 426 426 l 240,-240 c 156,-156 247,-240 260,-240 56,0 86,-68 47,-103 -40,-37 -96,-11 -94,44 1,32 -16,51 -236,272 l -237,237 h -400 -399 l 59,-61 c 239,-244 551,-481 869,-659 180,-100 166,-103 166,33 0,93 -3,116 -15,121 -8,3 -20,17 -27,30 -17,38 11,76 57,76 53,0 76,-62 35,-97 -18,-16 -20,-30 -20,-143 v -125 l 78,-34 c 42,-19 109,-48 147,-64 73,-30 345,-127 358,-127 4,0 7,51 7,113 0,101 -2,113 -20,125 -13,8 -20,23 -20,41 0,51 44,76 91,51 27,-15 26,-75 -1,-92 -18,-12 -20,-24 -20,-130 v -116 l 48,-16 c 102,-33 464,-106 524,-106 16,0 -20,41 -143,165 -145,146 -167,164 -194,163 -18,-1 -37,2 -44,6 -20,13 -30,49 -18,71 29,58 107,41 107,-23 0,-22 36,-63 183,-209 l 182,-182 120,-10 c 66,-6 137,-11 158,-11 h 37 v 293 293 l -27,27 c -26,24 -41,27 -178,42 -162,17 -378,55 -490,86 -158,45 -252,73 -280,85 -16,8 -73,30 -125,50 -130,49 -146,59 -175,101 -19,28 -25,51 -25,88 0,55 11,77 72,141 l 39,40 -101,102 -101,102 h -718 -718 z"
         id="path228"
         style="fill:#EAB00C;fill-opacity:0.97881356" />
      <path
         d="m 7248,2642 c -18,-16 -73,-60 -123,-98 -486,-376 -1056,-604 -1670,-669 -137,-14 -152,-18 -177,-42 l -28,-27 v -293 -293 h 36 c 19,0 90,5 156,11 l 121,11 184,184 c 156,156 183,188 183,213 0,20 7,34 19,41 47,24 91,0 91,-49 0,-36 -23,-55 -65,-54 -29,1 -49,-16 -200,-167 l -167,-167 138,23 c 139,23 275,52 389,84 l 60,16 3,97 c 2,86 0,99 -18,117 -11,11 -20,29 -20,40 0,26 34,60 60,60 26,0 60,-34 60,-60 0,-11 -9,-29 -20,-40 -17,-17 -20,-33 -20,-110 0,-49 2,-90 5,-90 31,0 362,124 492,185 l 93,44 v 99 c 0,86 -3,101 -20,117 -43,39 -19,105 38,105 46,0 71,-78 32,-102 -18,-11 -20,-24 -20,-106 0,-110 -9,-108 132,-30 199,110 424,261 598,402 106,85 141,117 260,233 l 105,103 h -401 -402 l -236,-237 c -209,-209 -236,-240 -236,-268 0,-35 -26,-65 -56,-65 -25,0 -38,10 -54,39 -10,20 -9,27 7,50 12,16 32,27 50,29 23,2 77,51 268,242 l 240,240 h 424 424 l 33,35 c 18,19 49,55 70,80 l 37,46 -23,24 -23,25 h -398 -398 z"
         id="path230"
         style="fill:#EAB00C;fill-opacity:0.97881356" />
      <path
         d="m 8036,2438 c -36,-40 -66,-75 -66,-78 0,-3 20,-25 44,-49 l 43,-43 51,54 c 28,29 59,64 69,78 l 19,25 -47,43 -47,43 z"
         id="path232"
         style="fill:#EAB00C;fill-opacity:0.97881356" />
      <path
         d="m 2113,2428 -41,-43 69,-75 69,-75 47,47 46,47 -63,68 c -35,37 -68,69 -74,71 -6,1 -30,-17 -53,-40 z"
         id="path234"
         style="fill:#EAB00C;fill-opacity:0.97881356" />
      <path
         d="m 7794,2199 c -38,-35 -70,-67 -72,-71 -4,-8 68,-98 78,-98 4,0 40,31 81,69 l 74,70 -46,47 -47,47 z"
         id="path236"
         style="fill:#EAB00C;fill-opacity:0.97881356" />
      <path
         d="m 2360,2184 -45,-46 75,-69 c 41,-38 77,-68 80,-66 3,1 25,23 48,48 l 42,46 -74,66 c -41,37 -76,67 -78,67 -2,0 -24,-21 -48,-46 z"
         id="path238"
         style="fill:#EAB00C;fill-opacity:0.97881356" />
      <path
         d="m 7530,1979 c -36,-28 -69,-54 -74,-59 -12,-12 63,-112 77,-103 7,3 45,31 84,61 80,59 79,52 21,120 -15,18 -30,32 -35,31 -4,0 -37,-23 -73,-50 z"
         id="path240"
         style="fill:#EAB00C;fill-opacity:0.97881356" />
      <path
         d="m 2627,1960 c -20,-27 -37,-52 -37,-55 0,-8 148,-115 159,-115 5,0 25,22 44,48 l 35,49 -72,53 c -39,30 -76,57 -82,62 -6,4 -25,-12 -47,-42 z"
         id="path242"
         style="fill:#EAB00C;fill-opacity:0.97881356" />
      <path
         d="m 4998,1848 c 9,-9 12,-94 12,-320 v -308 h 105 105 v 302 c 0,266 2,304 17,320 16,17 11,18 -117,18 -104,0 -131,-3 -122,-12 z"
         id="path244"
         style="fill:#EAB00C;fill-opacity:0.97881356" />
      <path
         d="m 7243,1778 -83,-51 28,-49 c 15,-28 32,-52 39,-55 10,-4 173,93 173,103 0,8 -65,104 -70,104 -3,0 -42,-24 -87,-52 z"
         id="path246"
         style="fill:#EAB00C;fill-opacity:0.97881356" />
      <path
         d="m 2907,1755 -37,-54 68,-44 c 116,-76 107,-75 142,-15 16,29 30,55 30,58 0,3 -28,23 -62,44 -35,21 -72,45 -84,53 -20,12 -23,10 -57,-42 z"
         id="path248"
         style="fill:#EAB00C;fill-opacity:0.97881356" />
      <path
         d="m 7025,1651 c -7,-6 -129,-72 -163,-87 -6,-3 53,-114 60,-114 11,0 138,65 162,82 17,14 17,17 -14,71 -35,63 -32,60 -45,48 z"
         id="path250"
         style="fill:#EAB00C;fill-opacity:0.97881356" />
      <path
         d="m 3205,1575 c -16,-30 -26,-57 -24,-59 9,-8 169,-86 177,-86 10,0 52,85 52,104 0,12 -149,96 -170,96 -4,0 -20,-25 -35,-55 z"
         id="path252"
         style="fill:#EAB00C;fill-opacity:0.97881356" />
      <path
         d="m 6665,1474 c -33,-14 -73,-30 -88,-36 -16,-6 -26,-15 -24,-22 2,-6 13,-34 22,-62 l 19,-51 45,18 c 25,10 69,28 97,41 l 51,23 -25,58 c -13,31 -27,57 -31,57 -3,0 -33,-12 -66,-26 z"
         id="path254"
         style="fill:#EAB00C;fill-opacity:0.97881356" />
      <path
         d="m 3533,1463 c -3,-10 -13,-36 -23,-59 l -17,-40 91,-37 c 50,-21 94,-37 97,-37 12,0 52,111 43,120 -11,9 -161,70 -175,70 -5,0 -12,-8 -16,-17 z"
         id="path256"
         style="fill:#EAB00C;fill-opacity:0.97881356" />
      <path
         d="m 6318,1348 c -66,-22 -88,-34 -88,-47 0,-32 32,-112 44,-108 6,2 51,16 99,32 50,16 86,33 84,39 -3,6 -13,35 -23,64 -10,28 -21,51 -24,51 -3,-1 -44,-15 -92,-31 z"
         id="path258"
         style="fill:#EAB00C;fill-opacity:0.97881356" />
      <path
         d="m 3846,1307 c -9,-30 -16,-59 -16,-64 0,-7 102,-42 171,-59 25,-5 28,-3 37,43 6,26 13,55 17,63 5,14 -31,28 -177,67 -12,4 -20,-8 -32,-50 z"
         id="path260"
         style="fill:#EAB00C;fill-opacity:0.97881356" />
      <path
         d="m 5985,1258 c -49,-11 -91,-20 -91,-21 -1,-1 3,-30 9,-64 13,-74 9,-73 132,-42 83,21 85,22 79,48 -16,73 -25,101 -32,100 -4,-1 -47,-10 -97,-21 z"
         id="path262"
         style="fill:#EAB00C;fill-opacity:0.97881356" />
      <path
         d="m 4196,1262 c -2,-4 -11,-33 -19,-64 l -15,-57 88,-20 c 120,-29 117,-29 129,29 6,28 11,57 11,64 0,8 -31,19 -82,30 -46,10 -88,20 -95,22 -7,2 -14,0 -17,-4 z"
         id="path264"
         style="fill:#EAB00C;fill-opacity:0.97881356" />
      <path
         d="m 4526,1175 c -3,-16 -8,-46 -11,-67 l -6,-36 48,-6 c 27,-3 73,-8 104,-12 l 56,-6 6,63 c 4,34 6,63 5,65 -2,1 -47,8 -100,16 l -98,14 z"
         id="path266"
         style="fill:#EAB00C;fill-opacity:0.97881356" />
      <path
         d="m 5630,1196 -75,-12 2,-34 c 2,-19 5,-49 8,-65 6,-35 9,-35 146,-14 l 65,10 -11,62 c -13,72 -12,72 -135,53 z"
         id="path268"
         style="fill:#EAB00C;fill-opacity:0.97881356" />
      <path
         d="m 4868,1108 c -3,-35 -3,-65 -1,-68 3,-3 49,-7 104,-8 l 99,-4 v 65 64 l -52,7 c -29,3 -74,6 -99,6 h -47 z"
         id="path270"
         style="fill:#EAB00C;fill-opacity:0.97881356" />
      <path
         d="m 5228,1163 c -15,-4 -18,-16 -18,-70 v -66 l 107,7 c 59,4 108,8 108,9 0,1 -1,30 -3,65 l -4,62 -86,-1 c -48,-1 -95,-3 -104,-6 z"
         id="path272"
         style="fill:#EAB00C;fill-opacity:0.97881356" />
    </g>
  </g>
</svg>
