<?xml version="1.0" encoding="UTF-8" standalone="no"?>
<svg
   xmlns:dc="http://purl.org/dc/elements/1.1/"
   xmlns:cc="http://creativecommons.org/ns#"
   xmlns:rdf="http://www.w3.org/1999/02/22-rdf-syntax-ns#"
   xmlns:svg="http://www.w3.org/2000/svg"
   xmlns="http://www.w3.org/2000/svg"
   version="1.1"
   id="layer"
   x="0px"
   y="0px"
   viewBox="0 0 440.89999 46.200001"
   xml:space="preserve"
   width="440.89999"
   height="46.200001"><metadata
   id="metadata35"><rdf:RDF><cc:Work
       rdf:about=""><dc:format>image/svg+xml</dc:format><dc:type
         rdf:resource="http://purl.org/dc/dcmitype/StillImage" /><dc:title></dc:title></cc:Work></rdf:RDF></metadata><defs
   id="defs33" />
<style
   type="text/css"
   id="style2">
	.st0{fill:#54B847;}
	.st1{fill:#FFFFFF;}
	.st2{fill:#2A4833;}
</style>


<path
   class="st2"
   d="M 36.9,44.3 C 33.9,45.1 29.4,46 25.3,46 11.3,46 0,38.6 0,23.6 0,9.4 11.7,2.4 25.3,2.4 c 4.5,0 7.1,0.5 11.5,1.3 v 11.1 c -2.7,-0.8 -5.4,-1.6 -8.1,-1.6 -6.9,0 -12.1,3.7 -12.1,10.6 0,7.3 4.8,11 11.6,11 3,0 5.8,-0.6 8.8,-1.6 v 11.1 z"
   id="path8"
   style="fill:#f9f9f9" />
<path
   class="st2"
   d="m 61.2,31.5 h -1.6 c -3.1,0 -6.8,0.3 -6.8,3.6 0,2.2 1.2,3 3.6,3 3.1,0 4.7,-2.9 4.7,-5.6 v -1 z M 42.6,14.9 c 4.5,-1.3 7.3,-1.8 13.2,-1.8 8.7,0 19.3,1.6 19.3,13.1 V 45.4 H 60.9 v -4.5 h -0.1 c -2.1,3.6 -6,5.3 -10.3,5.3 -5.9,0 -11.6,-2.7 -11.6,-9.3 0,-9.7 8.7,-11.6 16.3,-11.6 2.1,0 4.5,0.3 5.9,0.4 -0.1,-4.1 -4.2,-4.5 -8,-4.5 -3.6,0 -7.5,1.2 -10.5,2.7 z"
   id="path10"
   style="fill:#f9f9f9" />
<path
   class="st2"
   d="m 80,13.8 h 14.4 v 5.4 h 0.1 c 1.8,-4.4 6,-6.2 10.3,-6.2 8.1,0 11.1,4.2 11.1,10.4 V 45.3 H 100.6 V 27.1 c 0,-1.8 0,-4.3 -2.7,-4.3 -2.7,0 -2.7,2.5 -2.7,4.3 V 45.3 H 79.9 V 13.8 Z"
   id="path12"
   style="fill:#f9f9f9" />
<path
   class="st2"
   d="m 141.8,31.5 h -1.5 c -3.1,0 -6.8,0.3 -6.8,3.6 0,2.2 1.2,3 3.6,3 3.1,0 4.7,-2.9 4.7,-5.6 z M 123.2,14.9 c 4.5,-1.3 7.3,-1.8 13.2,-1.8 8.7,0 19.3,1.6 19.3,13.1 v 19.2 h -14.1 v -4.5 h -0.1 c -2.1,3.6 -6,5.3 -10.3,5.3 -5.9,0 -11.5,-2.7 -11.5,-9.3 0,-9.7 8.7,-11.6 16.3,-11.6 2.1,0 4.5,0.3 5.9,0.4 -0.1,-4.1 -4.2,-4.5 -8,-4.5 -3.6,0 -7.5,1.2 -10.5,2.7 v -9 z"
   id="path14"
   style="fill:#f9f9f9" />
<path
   class="st2"
   d="m 178.8,22.5 c -3.2,0 -3.7,3.3 -3.7,6.5 0,3.3 0.5,6.8 3.9,6.8 3.3,0 3.7,-3.5 3.7,-6.5 -0.1,-3.5 -0.6,-6.8 -3.9,-6.8 m 4.5,22.8 v -5.7 h -0.1 c -2.1,4.7 -5.2,6.5 -10.2,6.5 -10.1,0 -13.9,-7.9 -13.9,-17 0,-8.5 3.9,-16 13.4,-16 4.1,0 7.1,1.4 9.5,4.8 h 0.1 V 0 h 15.2 v 45.4 h -14 z"
   id="path16"
   style="fill:#f9f9f9" />
<path
   class="st2"
   d="m 223.6,31.5 h -1.5 c -3.1,0 -6.8,0.3 -6.8,3.6 0,2.2 1.2,3 3.6,3 3.1,0 4.7,-2.9 4.7,-5.6 z M 205,14.9 c 4.5,-1.3 7.3,-1.8 13.2,-1.8 8.7,0 19.3,1.6 19.3,13.1 v 19.2 h -14.2 v -4.5 h -0.1 c -2.1,3.6 -6,5.3 -10.3,5.3 -5.9,0 -11.6,-2.7 -11.6,-9.3 0,-9.7 8.7,-11.6 16.3,-11.6 2.1,0 4.5,0.3 5.9,0.4 -0.1,-4.1 -4.2,-4.5 -8,-4.5 -3.6,0 -7.5,1.2 -10.5,2.7 z"
   id="path18"
   style="fill:#f9f9f9" />
<polygon
   class="st2"
   points="488.6,334.2 472.3,334.2 472.3,304.4 458.1,304.4 458.1,292 502.8,292 502.8,304.4 488.6,304.4 "
   id="polygon20"
   style="fill:#f9f9f9"
   transform="translate(-195.4,-288.9)" />
<path
   class="st2"
   d="m 325.3,13.8 v 7.1 h 0.1 c 1.8,-4.5 4.8,-7.9 9.6,-7.9 0.9,0 1.9,0.1 2.5,0.3 v 12.6 c -0.7,-0.3 -2.1,-0.5 -3.4,-0.5 -4.2,0 -7.8,3.7 -7.8,8.3 V 45.1 H 311 V 13.6 h 14.3 z"
   id="path22"
   style="fill:#f9f9f9" />
<path
   class="st2"
   d="m 376.9,45.3 h -14.3 v -5.4 h -0.1 c -1.8,4.4 -6,6.2 -10.3,6.2 -8.1,0 -11.1,-4.2 -11.1,-10.3 V 13.9 h 15.3 v 18.2 c 0,1.8 0,4.3 2.7,4.3 2.7,0 2.7,-2.5 2.7,-4.3 V 13.9 H 377 v 31.4 z"
   id="path24"
   style="fill:#f9f9f9" />
<path
   class="st2"
   d="m 381.7,35.2 c 2.9,1.8 7.3,2.8 11.2,2.8 2.5,0 5.6,-0.5 5.6,-2.1 0,-3.9 -17.7,-0.1 -17.7,-12.3 0,-9.1 10.2,-10.6 17.7,-10.6 3.8,0 7.6,0.5 11.4,1.3 v 8.5 C 406.7,21.7 403.4,21 400,21 c -2.6,0 -5.3,0.2 -5.3,2.2 0,3.3 17.7,-0.5 17.7,11.4 0,9 -10.3,11.4 -17.5,11.4 -4.4,0 -8.9,-0.7 -13.2,-1.8 z"
   id="path26"
   style="fill:#f9f9f9" />
<path
   class="st2"
   d="M 418.7,13.8 V 6.5 L 434,1.8 v 11.9 h 6.9 v 9.1 H 434 v 8.9 c 0,2.7 1.3,4.1 3.3,4.1 1.4,0 2.5,-0.2 3.6,-0.5 v 9.1 c -3.3,1 -6.7,1.6 -10.5,1.6 -7.9,0 -11.7,-3.9 -11.7,-12.3 V 22.8 h -5.4 v -9.1 h 5.4 z"
   id="path28"
   style="fill:#f9f9f9" />
</svg>