<svg width="31" height="28" viewBox="0 0 31 28" fill="none" xmlns="http://www.w3.org/2000/svg">
<path d="M29.7083 15.4591H1.29167C0.578664 15.4591 0 14.7427 0 13.8599C0 12.9772 0.578664 12.2607 1.29167 12.2607H29.7083C30.4213 12.2607 31 12.9772 31 13.8599C31 14.7427 30.4213 15.4591 29.7083 15.4591Z" fill="#464B4E"/>
<path d="M29.7083 3.19841H1.29167C0.578664 3.19841 0 2.48197 0 1.59921C0 0.716441 0.578664 0 1.29167 0H29.7083C30.4213 0 31 0.716441 31 1.59921C31 2.48197 30.4213 3.19841 29.7083 3.19841Z" fill="#464B4E"/>
<path d="M29.7083 27.7194H1.29167C0.578664 27.7194 0 27.003 0 26.1202C0 25.2375 0.578664 24.521 1.29167 24.521H29.7083C30.4213 24.521 31 25.2375 31 26.1202C31 27.003 30.4213 27.7194 29.7083 27.7194Z" fill="#464B4E"/>
</svg>
