<svg width="33" height="33" viewBox="0 0 33 33" fill="none" xmlns="http://www.w3.org/2000/svg">
<path d="M6.10588 20.8208L16.4276 31.1425H9.72427L5.98157 27.5241L6.10588 20.8208Z" fill="black"/>
<path d="M0 15.6008L3.65942 19.2603L3.70167 25.8815L0 22.344V15.6008Z" fill="black"/>
<path d="M0.0603638 13.3644L19.6755 32.9384L23.4182 32.8974L33 23.4399V16.6545L21.5679 28.1276L4.95448 11.4731L16.3455 0.0410358L9.60118 0L0.183471 9.53961L0.0603638 13.3644Z" fill="black"/>
<path d="M8.24335 11.4731L19.7165 0.0410461H23.4592L24.9811 1.6861L14.9467 11.5142L16.5096 13.0759L26.5429 3.20683L29.833 6.49694L20.0049 16.4481L21.5269 18.0111L31.478 8.18302L32.9589 9.6229L33 13.2823L21.5269 24.7965L8.24335 11.4731Z" fill="black"/>
</svg>
