<svg width="17" height="17" viewBox="0 0 17 17" fill="none" xmlns="http://www.w3.org/2000/svg">
<path d="M4.57209 16.0455C1.0886 14.2301 -0.696968 10.264 0.253254 6.4525C1.20348 2.64101 4.6419 -0.0227435 8.56993 0.00956811C12.498 0.0418798 15.8921 2.76184 16.7795 6.58845C17.6669 10.4151 15.8163 14.3513 12.3034 16.1091L4.57209 16.0455Z" fill="#35495E"/>
<path d="M8.49929 15.5324C12.3839 15.5324 15.5331 12.3833 15.5331 8.49864C15.5331 4.61398 12.3839 1.46484 8.49929 1.46484C4.61462 1.46484 1.46548 4.61398 1.46548 8.49864C1.46548 12.3833 4.61462 15.5324 8.49929 15.5324Z" fill="#2C3E50"/>
<path d="M2.52347 12.6574C2.52347 12.6574 2.52347 12.6516 2.5264 12.6545C2.69073 12.429 2.67328 12.1188 2.48469 11.9132C2.29609 11.7075 1.98865 11.6633 1.74975 11.8075L0.28438 12.6867C0.0599005 12.8229 -0.0466546 13.0917 0.0235793 13.3447C0.0938131 13.5977 0.323702 13.7731 0.586247 13.774C0.692849 13.7746 0.797455 13.7451 0.888114 13.689L2.35349 12.8098C2.37316 12.7988 2.3918 12.7861 2.40917 12.7717" fill="#FDD7AD"/>
<path d="M4.94103 16.6653C4.7802 16.8742 4.49971 16.95 4.25554 16.8506C4.01138 16.7511 3.86363 16.501 3.89446 16.2391L4.09404 14.5419C4.11502 14.3311 4.24817 14.1479 4.44231 14.063C4.63644 13.978 4.86132 14.0044 5.03046 14.1321C5.19959 14.2598 5.28664 14.4688 5.25814 14.6788L5.05884 16.376C5.04659 16.4813 5.00586 16.5813 4.94103 16.6653Z" fill="#FDD7AD"/>
<path d="M3.31772 13.5131C3.53725 13.3265 3.85991 13.3271 4.07875 13.5145C4.29759 13.702 4.3477 14.0208 4.19694 14.2663L3.30893 15.7229C3.25419 15.8142 3.175 15.8883 3.08033 15.9369C2.89838 16.0338 2.67868 16.0271 2.50297 15.9193C2.22697 15.7504 2.13924 15.3903 2.30661 15.1133L3.18584 13.6714" fill="#FDD7AD"/>
<path d="M1.42093 15.459C1.19356 15.4589 0.986748 15.3274 0.890321 15.1214C0.793894 14.9155 0.825248 14.6724 0.970766 14.4977L2.43614 12.7393C2.57016 12.5783 2.77986 12.5011 2.98625 12.5367C3.19263 12.5723 3.36434 12.7153 3.4367 12.9119C3.50906 13.1084 3.47108 13.3286 3.33705 13.4896L1.87168 15.248C1.76023 15.3818 1.59506 15.4591 1.42093 15.459Z" fill="#FDD7AD"/>
<path d="M14.59 12.7717C14.6074 12.7861 14.626 12.7988 14.6457 12.8098L16.111 13.689C16.2015 13.745 16.3059 13.7745 16.4123 13.774C16.6749 13.7731 16.9048 13.5977 16.975 13.3447C17.0452 13.0917 16.9387 12.8229 16.7142 12.6867L15.2488 11.8075C15.0099 11.6633 14.7025 11.7075 14.5139 11.9132C14.3253 12.1188 14.3078 12.429 14.4722 12.6545C14.4751 12.6516 14.4751 12.6574 14.4751 12.6574" fill="#FDD7AD"/>
<path d="M12.0578 16.6653C12.2186 16.8742 12.4991 16.95 12.7433 16.8506C12.9874 16.7511 13.1352 16.501 13.1044 16.2391L12.9051 14.5419C12.8841 14.3311 12.7509 14.1479 12.5568 14.063C12.3627 13.978 12.1378 14.0044 11.9687 14.1321C11.7995 14.2598 11.7125 14.4688 11.741 14.6788L11.9403 16.376C11.9523 16.4813 11.9929 16.5814 12.0578 16.6653Z" fill="#FDD7AD"/>
<path d="M13.8133 13.6714L14.6925 15.1133C14.8599 15.3903 14.7722 15.7504 14.4962 15.9193C14.3205 16.0271 14.1008 16.0338 13.9188 15.9369C13.8241 15.8883 13.745 15.8142 13.6902 15.7229L12.8022 14.2663C12.6514 14.0208 12.7016 13.702 12.9204 13.5145C13.1392 13.3271 13.4619 13.3265 13.6814 13.5131" fill="#FDD7AD"/>
<path d="M15.5782 15.459C15.8056 15.4588 16.0123 15.3272 16.1086 15.1213C16.205 14.9154 16.1736 14.6724 16.0281 14.4977L14.5627 12.7392C14.4297 12.575 14.2186 12.4951 14.0102 12.5301C13.8017 12.5651 13.6283 12.7096 13.5562 12.9082C13.4841 13.1069 13.5246 13.329 13.6621 13.4895L15.1275 15.248C15.2389 15.3818 15.4041 15.4591 15.5782 15.459Z" fill="#FDD7AD"/>
<path d="M11.9283 16.2739C9.74416 17.2391 7.25442 17.2391 5.07031 16.2739L5.12307 15.8255L5.27253 15.7698L6.74084 15.2394H10.2577L11.726 15.7698L11.8755 15.8255L11.9283 16.2739Z" fill="#2FA8CC"/>
<path d="M11.726 15.7698C9.65997 16.6256 7.33858 16.6256 5.27252 15.7698L6.74083 15.2394H10.2577L11.726 15.7698Z" fill="#67B9CC"/>
<path d="M14.0032 7.03333H14.6539C15.1394 7.03333 15.5331 7.42697 15.5331 7.91255V8.79178C15.5331 9.27736 15.1394 9.671 14.6539 9.671H2.34471C1.85913 9.671 1.46548 9.27736 1.46548 8.79178V7.91255C1.46548 7.42697 1.85913 7.03333 2.34471 7.03333H14.0032Z" fill="#F9C795"/>
<path d="M15.1961 5.38337V5.39216C15.1769 5.96251 15.0883 6.52841 14.9323 7.07734H2.0663C1.91027 6.52841 1.82169 5.96251 1.80254 5.39216V5.38337C1.77503 4.60602 1.83004 3.82795 1.96666 3.06221C3.58143 1.12203 5.97506 0 8.4993 0C11.0235 0 13.4172 1.12203 15.0319 3.06221C15.1686 3.82795 15.2236 4.60602 15.1961 5.38337Z" fill="#805333"/>
<path d="M15.1961 5.38331V5.3921C15.1769 5.96245 15.0883 6.52835 14.9323 7.07728H2.0663C1.91027 6.52835 1.82169 5.96245 1.80254 5.3921V5.38331C1.8247 4.88496 1.87953 4.38859 1.96666 3.89742C3.58143 1.95723 5.97506 0.835205 8.4993 0.835205C11.0235 0.835205 13.4172 1.95723 15.0319 3.89742C15.1191 4.38859 15.1739 4.88496 15.1961 5.38331Z" fill="#A56A43"/>
<path d="M10.249 13.4985C10.1816 13.6421 9.71266 14.6943 10.2578 15.2394C10.2578 15.2394 9.9647 15.8256 8.49933 15.8256C7.03395 15.8256 6.74088 15.2394 6.74088 15.2394C7.28599 14.6943 6.81707 13.6421 6.74967 13.4985H10.249Z" fill="#F9C795"/>
<path d="M6.48937 13.4063C7.78446 13.8966 9.21411 13.8966 10.5092 13.4063C10.8649 13.2755 11.21 13.1174 11.5414 12.9335C13.4816 11.8058 14.2178 9.34864 14.0284 7.29477C14.0176 7.17754 13.9552 6.1553 13.8834 5.42085C13.8419 4.99845 13.5024 4.66718 13.0792 4.636C11.9605 4.55306 9.74866 4.23771 8.72759 3.03757C8.67124 2.96962 8.58756 2.9303 8.49928 2.9303C8.41101 2.9303 8.32732 2.96962 8.27098 3.03757C7.2499 4.23917 5.03807 4.55306 3.9194 4.636C3.49592 4.66713 3.15646 4.9988 3.11549 5.42144C3.0434 6.15588 2.98097 7.17754 2.96896 7.29536C2.7808 9.34864 3.51701 11.8058 5.45716 12.9335C5.78856 13.1174 6.13365 13.2755 6.48937 13.4063Z" fill="#FDD7AD"/>
<path d="M4.68933 6.52814C4.56012 6.52829 4.44605 6.44381 4.40853 6.32017C4.371 6.19653 4.41888 6.0629 4.52638 5.99122C5.10158 5.61779 5.76334 5.39895 6.44778 5.35583C6.60964 5.35583 6.74086 5.48705 6.74086 5.64891C6.74086 5.81077 6.60964 5.94199 6.44778 5.94199C5.87936 5.9849 5.33074 6.16949 4.85199 6.4789C4.80382 6.51102 4.74722 6.52815 4.68933 6.52814Z" fill="#A56A43"/>
<path d="M7.91318 10.2573H9.08548C9.73292 10.2573 10.2578 10.7822 10.2578 11.4296V11.7227C10.2578 12.0464 9.99535 12.3088 9.67163 12.3088H7.32703C7.0033 12.3088 6.74088 12.0464 6.74088 11.7227V11.4296C6.74088 10.7822 7.26573 10.2573 7.91318 10.2573Z" fill="#802D40"/>
<path d="M6.44953 8.60952C6.94071 8.50181 7.30027 8.08049 7.32944 7.57849C7.35861 7.07649 7.05028 6.61636 6.57488 6.45248C6.09949 6.28859 5.57311 6.46096 5.28673 6.87429C5.00035 7.28763 5.0239 7.84101 5.34435 8.22853L6.44953 8.60952Z" fill="#ECF0F1"/>
<path d="M12.3093 6.52814C12.2516 6.52812 12.1952 6.51109 12.1472 6.47919C11.6678 6.1706 11.1192 5.98599 10.5508 5.94199C10.389 5.94199 10.2577 5.81077 10.2577 5.64891C10.2577 5.48705 10.389 5.35583 10.5508 5.35583C11.2351 5.399 11.8968 5.61783 12.4719 5.99122C12.5794 6.06287 12.6273 6.19642 12.5898 6.32003C12.5524 6.44364 12.4384 6.52816 12.3093 6.52814Z" fill="#A56A43"/>
<path d="M11.6543 8.22882C11.973 7.84206 11.9958 7.29052 11.7101 6.87877C11.4243 6.46701 10.8996 6.29544 10.4258 6.45879C9.95196 6.62213 9.64448 7.08058 9.67316 7.58097C9.70183 8.08135 10.0597 8.50167 10.5491 8.60981L11.6543 8.22882Z" fill="#ECF0F1"/>
<path d="M9.08546 9.3779H7.91316C7.7513 9.3779 7.62009 9.24668 7.62009 9.08482C7.62009 8.92296 7.7513 8.79175 7.91316 8.79175H9.08546C9.24732 8.79175 9.37854 8.92296 9.37854 9.08482C9.37854 9.24668 9.24732 9.3779 9.08546 9.3779Z" fill="#F9C795"/>
<path d="M6.4478 8.20563C6.77152 8.20563 7.03395 7.9432 7.03395 7.61948C7.03395 7.29575 6.77152 7.03333 6.4478 7.03333C6.12408 7.03333 5.86165 7.29575 5.86165 7.61948C5.86165 7.9432 6.12408 8.20563 6.4478 8.20563Z" fill="#35495E"/>
<path d="M10.5508 8.20563C10.8745 8.20563 11.137 7.9432 11.137 7.61948C11.137 7.29575 10.8745 7.03333 10.5508 7.03333C10.2271 7.03333 9.96466 7.29575 9.96466 7.61948C9.96466 7.9432 10.2271 8.20563 10.5508 8.20563Z" fill="#35495E"/>
<path d="M6.74085 9.16454C6.66308 9.16475 6.58847 9.13383 6.53365 9.07867C6.06193 8.62753 5.39844 8.43738 4.75937 8.57018C4.6577 8.59542 4.55029 8.56449 4.4776 8.48906C4.40492 8.41363 4.37799 8.30515 4.40697 8.20449C4.43596 8.10382 4.51644 8.02626 4.61811 8.00103C5.45672 7.82091 6.33002 8.06949 6.94806 8.66426C7.03185 8.74808 7.05691 8.87411 7.01156 8.98361C6.96621 9.09311 6.85937 9.16451 6.74085 9.16454Z" fill="#F9C795"/>
<path d="M10.2578 9.16454C10.1392 9.16451 10.0324 9.09311 9.98705 8.98361C9.9417 8.87411 9.96676 8.74808 10.0506 8.66426C10.6686 8.06949 11.5419 7.82091 12.3805 8.00103C12.5377 8.04004 12.6335 8.19907 12.5944 8.35624C12.5554 8.5134 12.3964 8.60919 12.2392 8.57018C11.6002 8.43743 10.9367 8.62757 10.465 9.07867C10.4101 9.13383 10.3355 9.16475 10.2578 9.16454Z" fill="#F9C795"/>
<path d="M6.15472 7.61948C6.31658 7.61948 6.4478 7.48826 6.4478 7.3264C6.4478 7.16454 6.31658 7.03333 6.15472 7.03333C5.99286 7.03333 5.86165 7.16454 5.86165 7.3264C5.86165 7.48826 5.99286 7.61948 6.15472 7.61948Z" fill="#ECF0F1"/>
<path d="M10.2577 7.61948C10.4196 7.61948 10.5508 7.48826 10.5508 7.3264C10.5508 7.16454 10.4196 7.03333 10.2577 7.03333C10.0959 7.03333 9.96466 7.16454 9.96466 7.3264C9.96466 7.48826 10.0959 7.61948 10.2577 7.61948Z" fill="#ECF0F1"/>
<path d="M8.4993 11.1365C9.14674 11.1365 9.6716 11.6613 9.6716 12.3088H7.327C7.327 11.6613 7.85185 11.1365 8.4993 11.1365Z" fill="#FF5364"/>
</svg>
