<svg width="9" height="11" viewBox="0 0 9 11" fill="none" xmlns="http://www.w3.org/2000/svg">
<path d="M8.2845 2.24284L6.13607 0.0944023C6.07563 0.0339668 5.99367 0 5.9082 0H1.18164C0.530084 0 0 0.530084 0 1.18164V9.81836C0 10.4699 0.530084 11 1.18164 11H7.19727C7.84882 11 8.37891 10.4699 8.37891 9.81836V2.4707C8.37891 2.38524 8.34494 2.30328 8.2845 2.24284ZM6.23047 1.10028L7.27863 2.14844H6.23047V1.10028ZM7.19727 10.3555H1.18164C0.885478 10.3555 0.644531 10.1145 0.644531 9.81836V1.18164C0.644531 0.885478 0.885478 0.644531 1.18164 0.644531H5.58594V2.4707C5.58594 2.64868 5.73023 2.79297 5.9082 2.79297H7.73438V9.81836C7.73438 10.1145 7.49343 10.3555 7.19727 10.3555Z" fill="black"/>
<path d="M6.33789 4.33984C5.93065 4.33984 5.56454 4.11357 5.38244 3.74937L5.33708 3.65864C5.28249 3.54943 5.1709 3.48047 5.04883 3.48047H3.33008C3.208 3.48047 3.09641 3.54943 3.04182 3.65862L2.99647 3.74932C2.81437 4.11357 2.44825 4.33984 2.04102 4.33984C1.86304 4.33984 1.71875 4.48413 1.71875 4.66211V6.50111C1.71875 7.22414 1.94689 7.91295 2.37849 8.49305C2.81009 9.07313 3.40431 9.48958 4.09686 9.69734C4.12706 9.7064 4.15826 9.71094 4.18945 9.71094C4.22065 9.71094 4.25184 9.7064 4.28205 9.69734C4.9746 9.48958 5.56881 9.07313 6.00041 8.49305C6.43201 7.91295 6.66016 7.22414 6.66016 6.50111V4.66211C6.66016 4.48413 6.51587 4.33984 6.33789 4.33984ZM6.01562 6.50111C6.01562 7.66676 5.28578 8.6793 4.18945 9.05044C3.09313 8.6793 2.36328 7.66676 2.36328 6.50111V4.95434C2.851 4.86228 3.27501 4.56332 3.52612 4.12498H4.85278C5.10389 4.5633 5.52791 4.86228 6.01562 4.95434V6.50111Z" fill="black"/>
<path d="M4.87309 5.76016L3.88563 6.74761L3.50583 6.36783C3.37999 6.24197 3.17594 6.24197 3.05008 6.36783C2.92422 6.49368 2.92422 6.69772 3.05008 6.82357L3.65774 7.43124C3.72067 7.49417 3.80315 7.52564 3.88561 7.52564C3.96806 7.52564 4.05056 7.49419 4.11347 7.43124L5.3288 6.21591C5.45465 6.09006 5.45465 5.88602 5.3288 5.76016C5.20299 5.63431 4.99893 5.63431 4.87309 5.76016Z" fill="black"/>
</svg>
