<svg width="19" height="14" viewBox="0 0 19 14" fill="none" xmlns="http://www.w3.org/2000/svg">
<path d="M14.4479 5.9021C15.6363 5.9021 16.5997 4.9387 16.5997 3.75029C16.5997 2.56188 15.6363 1.59848 14.4479 1.59848C13.2595 1.59848 12.2961 2.56188 12.2961 3.75029C12.2961 4.9387 13.2595 5.9021 14.4479 5.9021Z" fill="#182542"/>
<path d="M18.69 9.84446V10.3824C18.69 10.8235 18.3265 11.1893 17.8881 11.1893H13.3439V10.9204C13.3439 9.44638 12.6382 8.13378 11.5583 7.31609C11.9967 7.04711 12.5206 6.88573 13.0766 6.88573H15.7496C17.3749 6.88573 18.69 8.20909 18.69 9.84446Z" fill="#182542"/>
<path d="M5.90217 6.39395C7.66781 6.39395 9.09915 4.96261 9.09915 3.19697C9.09915 1.43133 7.66781 0 5.90217 0C4.13653 0 2.7052 1.43133 2.7052 3.19697C2.7052 4.96261 4.13653 6.39395 5.90217 6.39395Z" fill="#182542"/>
<path d="M8.85316 7.99243H2.95105C1.32314 7.99243 0 9.29628 0 10.9004V12.4866C0 12.9244 0.360565 13.2797 0.804832 13.2797H10.9994C11.4436 13.2797 11.8042 12.9244 11.8042 12.4866V10.9004C11.8042 9.29628 10.4811 7.99243 8.85316 7.99243Z" fill="#182542"/>
</svg>
