<svg width="190" height="29" viewBox="0 0 190 29" fill="none" xmlns="http://www.w3.org/2000/svg">
<path d="M44.9789 20.7288C47.1832 20.7288 49.0616 19.9429 50.3075 18.4862L48.6974 16.9527C47.7199 18.0261 46.5123 18.5437 45.113 18.5437C42.3337 18.5437 40.3211 16.5885 40.3211 13.8284C40.3211 11.0682 42.3337 9.11306 45.113 9.11306C46.5123 9.11306 47.7199 9.63059 48.6974 10.6848L50.3075 9.17056C49.0616 7.7138 47.1832 6.92791 44.998 6.92791C40.8769 6.92791 37.8101 9.82227 37.8101 13.8284C37.8101 17.8345 40.8769 20.7288 44.9789 20.7288ZM56.691 20.6713C59.8729 20.6713 62.1539 18.4862 62.1539 15.4193C62.1539 12.3524 59.8729 10.1865 56.691 10.1865C53.5475 10.1865 51.2473 12.3524 51.2473 15.4193C51.2473 18.4862 53.5475 20.6713 56.691 20.6713ZM56.691 18.6203C54.9659 18.6203 53.6625 17.3744 53.6625 15.4193C53.6625 13.4642 54.9659 12.2183 56.691 12.2183C58.4353 12.2183 59.7387 13.4642 59.7387 15.4193C59.7387 17.3744 58.4353 18.6203 56.691 18.6203ZM65.6527 8.61469C66.5536 8.61469 67.1861 7.96298 67.1861 7.11959C67.1861 6.33371 66.5344 5.7395 65.6527 5.7395C64.771 5.7395 64.1193 6.37204 64.1193 7.1771C64.1193 7.98215 64.771 8.61469 65.6527 8.61469ZM64.4451 20.5371H66.8411V10.3015H64.4451V20.5371ZM75.7938 10.1865C74.2987 10.1865 73.0527 10.6848 72.2669 11.6241V10.3015H69.9859V20.5371H72.3819V15.3618C72.3819 13.3108 73.532 12.2758 75.2379 12.2758C76.7713 12.2758 77.6722 13.1575 77.6722 14.9784V20.5371H80.0682V14.6718C80.0682 11.5857 78.2473 10.1865 75.7938 10.1865ZM98.0202 20.5371L98.001 7.11959H95.9501L90.7172 16.0135L85.3885 7.11959H83.3376V20.5371H85.7144V11.7582L90.123 19.0037H91.2348L95.6434 11.6432L95.6625 20.5371H98.0202ZM105.325 10.1865C103.676 10.1865 102.085 10.6082 100.993 11.4515L101.932 13.1958C102.699 12.5633 103.887 12.1799 105.037 12.1799C106.743 12.1799 107.587 13.0041 107.587 14.4034V14.5567H104.941C101.836 14.5567 100.686 15.8985 100.686 17.6044C100.686 19.3871 102.162 20.6713 104.5 20.6713C106.034 20.6713 107.146 20.1729 107.721 19.2912V20.5371H109.983V14.5376C109.983 11.5857 108.277 10.1865 105.325 10.1865ZM104.999 18.927C103.772 18.927 103.044 18.3712 103.044 17.5086C103.044 16.7611 103.485 16.1477 105.114 16.1477H107.587V17.3361C107.184 18.3903 106.168 18.927 104.999 18.927ZM115.338 11.7966V10.3015H113.057V20.5371H115.453V15.5726C115.453 13.4833 116.604 12.4099 118.424 12.4099C118.597 12.4099 118.769 12.4291 118.98 12.4674V10.1865C117.274 10.1865 116.028 10.7232 115.338 11.7966ZM128.738 20.5371H131.651L126.974 14.5951L131.249 10.3015H128.373L123.409 14.9018V6.31454H121.013V20.5371H123.409V17.8345L125.192 16.1477L128.738 20.5371ZM142.39 15.4768C142.39 12.2758 140.205 10.1865 137.215 10.1865C134.167 10.1865 131.925 12.3716 131.925 15.4193C131.925 18.467 134.148 20.6713 137.579 20.6713C139.343 20.6713 140.78 20.0963 141.7 19.0037L140.416 17.5278C139.688 18.2753 138.787 18.6395 137.637 18.6395C135.854 18.6395 134.608 17.6811 134.321 16.186H142.352C142.371 15.956 142.39 15.6685 142.39 15.4768ZM137.215 12.1033C138.787 12.1033 139.918 13.1192 140.109 14.5951H134.302C134.532 13.1 135.663 12.1033 137.215 12.1033ZM150.174 18.2753C149.81 18.5628 149.33 18.697 148.832 18.697C147.912 18.697 147.414 18.1603 147.414 17.1636V12.2949H150.155V10.3781H147.414V8.03965H145.018V10.3781H143.331V12.2949H145.018V17.2211C145.018 19.4829 146.302 20.6713 148.545 20.6713C149.407 20.6713 150.27 20.4413 150.845 19.9813L150.174 18.2753ZM159.257 20.7288C161.461 20.7288 163.339 19.9429 164.585 18.4862L162.975 16.9527C161.998 18.0261 160.79 18.5437 159.391 18.5437C156.611 18.5437 154.599 16.5885 154.599 13.8284C154.599 11.0682 156.611 9.11306 159.391 9.11306C160.79 9.11306 161.998 9.63059 162.975 10.6848L164.585 9.17056C163.339 7.7138 161.461 6.92791 159.276 6.92791C155.155 6.92791 152.088 9.82227 152.088 13.8284C152.088 17.8345 155.155 20.7288 159.257 20.7288ZM170.559 10.1865C168.91 10.1865 167.32 10.6082 166.227 11.4515L167.166 13.1958C167.933 12.5633 169.121 12.1799 170.271 12.1799C171.977 12.1799 172.821 13.0041 172.821 14.4034V14.5567H170.176C167.07 14.5567 165.92 15.8985 165.92 17.6044C165.92 19.3871 167.396 20.6713 169.735 20.6713C171.268 20.6713 172.38 20.1729 172.955 19.2912V20.5371H175.217V14.5376C175.217 11.5857 173.511 10.1865 170.559 10.1865ZM170.233 18.927C169.006 18.927 168.278 18.3712 168.278 17.5086C168.278 16.7611 168.719 16.1477 170.348 16.1477H172.821V17.3361C172.418 18.3903 171.402 18.927 170.233 18.927ZM183.965 10.1865C182.566 10.1865 181.378 10.6657 180.573 11.6432V10.3015H178.292V24.2557H180.688V19.2912C181.512 20.2305 182.662 20.6713 183.965 20.6713C186.956 20.6713 189.16 18.6012 189.16 15.4193C189.16 12.2566 186.956 10.1865 183.965 10.1865ZM183.697 18.6203C181.972 18.6203 180.649 17.3744 180.649 15.4193C180.649 13.4642 181.972 12.2183 183.697 12.2183C185.422 12.2183 186.726 13.4642 186.726 15.4193C186.726 17.3744 185.422 18.6203 183.697 18.6203Z" fill="#182542"/>
<path d="M44.9789 20.7288C47.1832 20.7288 49.0616 19.9429 50.3075 18.4862L48.6974 16.9527C47.7199 18.0261 46.5123 18.5437 45.113 18.5437C42.3337 18.5437 40.3211 16.5885 40.3211 13.8284C40.3211 11.0682 42.3337 9.11306 45.113 9.11306C46.5123 9.11306 47.7199 9.63059 48.6974 10.6848L50.3075 9.17056C49.0616 7.7138 47.1832 6.92791 44.998 6.92791C40.8769 6.92791 37.8101 9.82227 37.8101 13.8284C37.8101 17.8345 40.8769 20.7288 44.9789 20.7288ZM56.691 20.6713C59.8729 20.6713 62.1539 18.4862 62.1539 15.4193C62.1539 12.3524 59.8729 10.1865 56.691 10.1865C53.5475 10.1865 51.2473 12.3524 51.2473 15.4193C51.2473 18.4862 53.5475 20.6713 56.691 20.6713ZM56.691 18.6203C54.9659 18.6203 53.6625 17.3744 53.6625 15.4193C53.6625 13.4642 54.9659 12.2183 56.691 12.2183C58.4353 12.2183 59.7387 13.4642 59.7387 15.4193C59.7387 17.3744 58.4353 18.6203 56.691 18.6203ZM65.6527 8.61469C66.5536 8.61469 67.1861 7.96298 67.1861 7.11959C67.1861 6.33371 66.5344 5.7395 65.6527 5.7395C64.771 5.7395 64.1193 6.37204 64.1193 7.1771C64.1193 7.98215 64.771 8.61469 65.6527 8.61469ZM64.4451 20.5371H66.8411V10.3015H64.4451V20.5371ZM75.7938 10.1865C74.2987 10.1865 73.0527 10.6848 72.2669 11.6241V10.3015H69.9859V20.5371H72.3819V15.3618C72.3819 13.3108 73.532 12.2758 75.2379 12.2758C76.7713 12.2758 77.6722 13.1575 77.6722 14.9784V20.5371H80.0682V14.6718C80.0682 11.5857 78.2473 10.1865 75.7938 10.1865ZM98.0202 20.5371L98.001 7.11959H95.9501L90.7172 16.0135L85.3885 7.11959H83.3376V20.5371H85.7144V11.7582L90.123 19.0037H91.2348L95.6434 11.6432L95.6625 20.5371H98.0202ZM105.325 10.1865C103.676 10.1865 102.085 10.6082 100.993 11.4515L101.932 13.1958C102.699 12.5633 103.887 12.1799 105.037 12.1799C106.743 12.1799 107.587 13.0041 107.587 14.4034V14.5567H104.941C101.836 14.5567 100.686 15.8985 100.686 17.6044C100.686 19.3871 102.162 20.6713 104.5 20.6713C106.034 20.6713 107.146 20.1729 107.721 19.2912V20.5371H109.983V14.5376C109.983 11.5857 108.277 10.1865 105.325 10.1865ZM104.999 18.927C103.772 18.927 103.044 18.3712 103.044 17.5086C103.044 16.7611 103.485 16.1477 105.114 16.1477H107.587V17.3361C107.184 18.3903 106.168 18.927 104.999 18.927ZM115.338 11.7966V10.3015H113.057V20.5371H115.453V15.5726C115.453 13.4833 116.604 12.4099 118.424 12.4099C118.597 12.4099 118.769 12.4291 118.98 12.4674V10.1865C117.274 10.1865 116.028 10.7232 115.338 11.7966ZM128.738 20.5371H131.651L126.974 14.5951L131.249 10.3015H128.373L123.409 14.9018V6.31454H121.013V20.5371H123.409V17.8345L125.192 16.1477L128.738 20.5371ZM142.39 15.4768C142.39 12.2758 140.205 10.1865 137.215 10.1865C134.167 10.1865 131.925 12.3716 131.925 15.4193C131.925 18.467 134.148 20.6713 137.579 20.6713C139.343 20.6713 140.78 20.0963 141.7 19.0037L140.416 17.5278C139.688 18.2753 138.787 18.6395 137.637 18.6395C135.854 18.6395 134.608 17.6811 134.321 16.186H142.352C142.371 15.956 142.39 15.6685 142.39 15.4768ZM137.215 12.1033C138.787 12.1033 139.918 13.1192 140.109 14.5951H134.302C134.532 13.1 135.663 12.1033 137.215 12.1033ZM150.174 18.2753C149.81 18.5628 149.33 18.697 148.832 18.697C147.912 18.697 147.414 18.1603 147.414 17.1636V12.2949H150.155V10.3781H147.414V8.03965H145.018V10.3781H143.331V12.2949H145.018V17.2211C145.018 19.4829 146.302 20.6713 148.545 20.6713C149.407 20.6713 150.27 20.4413 150.845 19.9813L150.174 18.2753ZM159.257 20.7288C161.461 20.7288 163.339 19.9429 164.585 18.4862L162.975 16.9527C161.998 18.0261 160.79 18.5437 159.391 18.5437C156.611 18.5437 154.599 16.5885 154.599 13.8284C154.599 11.0682 156.611 9.11306 159.391 9.11306C160.79 9.11306 161.998 9.63059 162.975 10.6848L164.585 9.17056C163.339 7.7138 161.461 6.92791 159.276 6.92791C155.155 6.92791 152.088 9.82227 152.088 13.8284C152.088 17.8345 155.155 20.7288 159.257 20.7288ZM170.559 10.1865C168.91 10.1865 167.32 10.6082 166.227 11.4515L167.166 13.1958C167.933 12.5633 169.121 12.1799 170.271 12.1799C171.977 12.1799 172.821 13.0041 172.821 14.4034V14.5567H170.176C167.07 14.5567 165.92 15.8985 165.92 17.6044C165.92 19.3871 167.396 20.6713 169.735 20.6713C171.268 20.6713 172.38 20.1729 172.955 19.2912V20.5371H175.217V14.5376C175.217 11.5857 173.511 10.1865 170.559 10.1865ZM170.233 18.927C169.006 18.927 168.278 18.3712 168.278 17.5086C168.278 16.7611 168.719 16.1477 170.348 16.1477H172.821V17.3361C172.418 18.3903 171.402 18.927 170.233 18.927ZM183.965 10.1865C182.566 10.1865 181.378 10.6657 180.573 11.6432V10.3015H178.292V24.2557H180.688V19.2912C181.512 20.2305 182.662 20.6713 183.965 20.6713C186.956 20.6713 189.16 18.6012 189.16 15.4193C189.16 12.2566 186.956 10.1865 183.965 10.1865ZM183.697 18.6203C181.972 18.6203 180.649 17.3744 180.649 15.4193C180.649 13.4642 181.972 12.2183 183.697 12.2183C185.422 12.2183 186.726 13.4642 186.726 15.4193C186.726 17.3744 185.422 18.6203 183.697 18.6203Z" fill="#182542"/>
<path d="M44.9789 20.7288C47.1832 20.7288 49.0616 19.9429 50.3075 18.4862L48.6974 16.9527C47.7199 18.0261 46.5123 18.5437 45.113 18.5437C42.3337 18.5437 40.3211 16.5885 40.3211 13.8284C40.3211 11.0682 42.3337 9.11306 45.113 9.11306C46.5123 9.11306 47.7199 9.63059 48.6974 10.6848L50.3075 9.17056C49.0616 7.7138 47.1832 6.92791 44.998 6.92791C40.8769 6.92791 37.8101 9.82227 37.8101 13.8284C37.8101 17.8345 40.8769 20.7288 44.9789 20.7288ZM56.691 20.6713C59.8729 20.6713 62.1539 18.4862 62.1539 15.4193C62.1539 12.3524 59.8729 10.1865 56.691 10.1865C53.5475 10.1865 51.2473 12.3524 51.2473 15.4193C51.2473 18.4862 53.5475 20.6713 56.691 20.6713ZM56.691 18.6203C54.9659 18.6203 53.6625 17.3744 53.6625 15.4193C53.6625 13.4642 54.9659 12.2183 56.691 12.2183C58.4353 12.2183 59.7387 13.4642 59.7387 15.4193C59.7387 17.3744 58.4353 18.6203 56.691 18.6203ZM65.6527 8.61469C66.5536 8.61469 67.1861 7.96298 67.1861 7.11959C67.1861 6.33371 66.5344 5.7395 65.6527 5.7395C64.771 5.7395 64.1193 6.37204 64.1193 7.1771C64.1193 7.98215 64.771 8.61469 65.6527 8.61469ZM64.4451 20.5371H66.8411V10.3015H64.4451V20.5371ZM75.7938 10.1865C74.2987 10.1865 73.0527 10.6848 72.2669 11.6241V10.3015H69.9859V20.5371H72.3819V15.3618C72.3819 13.3108 73.532 12.2758 75.2379 12.2758C76.7713 12.2758 77.6722 13.1575 77.6722 14.9784V20.5371H80.0682V14.6718C80.0682 11.5857 78.2473 10.1865 75.7938 10.1865ZM98.0202 20.5371L98.001 7.11959H95.9501L90.7172 16.0135L85.3885 7.11959H83.3376V20.5371H85.7144V11.7582L90.123 19.0037H91.2348L95.6434 11.6432L95.6625 20.5371H98.0202ZM105.325 10.1865C103.676 10.1865 102.085 10.6082 100.993 11.4515L101.932 13.1958C102.699 12.5633 103.887 12.1799 105.037 12.1799C106.743 12.1799 107.587 13.0041 107.587 14.4034V14.5567H104.941C101.836 14.5567 100.686 15.8985 100.686 17.6044C100.686 19.3871 102.162 20.6713 104.5 20.6713C106.034 20.6713 107.146 20.1729 107.721 19.2912V20.5371H109.983V14.5376C109.983 11.5857 108.277 10.1865 105.325 10.1865ZM104.999 18.927C103.772 18.927 103.044 18.3712 103.044 17.5086C103.044 16.7611 103.485 16.1477 105.114 16.1477H107.587V17.3361C107.184 18.3903 106.168 18.927 104.999 18.927ZM115.338 11.7966V10.3015H113.057V20.5371H115.453V15.5726C115.453 13.4833 116.604 12.4099 118.424 12.4099C118.597 12.4099 118.769 12.4291 118.98 12.4674V10.1865C117.274 10.1865 116.028 10.7232 115.338 11.7966ZM128.738 20.5371H131.651L126.974 14.5951L131.249 10.3015H128.373L123.409 14.9018V6.31454H121.013V20.5371H123.409V17.8345L125.192 16.1477L128.738 20.5371ZM142.39 15.4768C142.39 12.2758 140.205 10.1865 137.215 10.1865C134.167 10.1865 131.925 12.3716 131.925 15.4193C131.925 18.467 134.148 20.6713 137.579 20.6713C139.343 20.6713 140.78 20.0963 141.7 19.0037L140.416 17.5278C139.688 18.2753 138.787 18.6395 137.637 18.6395C135.854 18.6395 134.608 17.6811 134.321 16.186H142.352C142.371 15.956 142.39 15.6685 142.39 15.4768ZM137.215 12.1033C138.787 12.1033 139.918 13.1192 140.109 14.5951H134.302C134.532 13.1 135.663 12.1033 137.215 12.1033ZM150.174 18.2753C149.81 18.5628 149.33 18.697 148.832 18.697C147.912 18.697 147.414 18.1603 147.414 17.1636V12.2949H150.155V10.3781H147.414V8.03965H145.018V10.3781H143.331V12.2949H145.018V17.2211C145.018 19.4829 146.302 20.6713 148.545 20.6713C149.407 20.6713 150.27 20.4413 150.845 19.9813L150.174 18.2753ZM159.257 20.7288C161.461 20.7288 163.339 19.9429 164.585 18.4862L162.975 16.9527C161.998 18.0261 160.79 18.5437 159.391 18.5437C156.611 18.5437 154.599 16.5885 154.599 13.8284C154.599 11.0682 156.611 9.11306 159.391 9.11306C160.79 9.11306 161.998 9.63059 162.975 10.6848L164.585 9.17056C163.339 7.7138 161.461 6.92791 159.276 6.92791C155.155 6.92791 152.088 9.82227 152.088 13.8284C152.088 17.8345 155.155 20.7288 159.257 20.7288ZM170.559 10.1865C168.91 10.1865 167.32 10.6082 166.227 11.4515L167.166 13.1958C167.933 12.5633 169.121 12.1799 170.271 12.1799C171.977 12.1799 172.821 13.0041 172.821 14.4034V14.5567H170.176C167.07 14.5567 165.92 15.8985 165.92 17.6044C165.92 19.3871 167.396 20.6713 169.735 20.6713C171.268 20.6713 172.38 20.1729 172.955 19.2912V20.5371H175.217V14.5376C175.217 11.5857 173.511 10.1865 170.559 10.1865ZM170.233 18.927C169.006 18.927 168.278 18.3712 168.278 17.5086C168.278 16.7611 168.719 16.1477 170.348 16.1477H172.821V17.3361C172.418 18.3903 171.402 18.927 170.233 18.927ZM183.965 10.1865C182.566 10.1865 181.378 10.6657 180.573 11.6432V10.3015H178.292V24.2557H180.688V19.2912C181.512 20.2305 182.662 20.6713 183.965 20.6713C186.956 20.6713 189.16 18.6012 189.16 15.4193C189.16 12.2566 186.956 10.1865 183.965 10.1865ZM183.697 18.6203C181.972 18.6203 180.649 17.3744 180.649 15.4193C180.649 13.4642 181.972 12.2183 183.697 12.2183C185.422 12.2183 186.726 13.4642 186.726 15.4193C186.726 17.3744 185.422 18.6203 183.697 18.6203Z" fill="#182542"/>
<path d="M24.9954 17.1801C24.768 17.3345 24.5024 17.4257 24.2266 17.4439C23.951 17.4621 23.6754 17.4068 23.429 17.2837C22.8505 16.9617 22.5387 16.2065 22.5387 15.1774V12.0234C22.5387 10.5094 21.9302 9.43219 20.9122 9.13974C19.1917 8.64371 17.9069 10.7204 17.4112 11.5015L14.3684 16.3546V10.4317C14.3346 9.06572 13.8839 8.24761 13.0311 8.00329C12.4677 7.84042 11.6225 7.90704 10.7998 9.14344L3.99687 19.9045C3.0917 18.198 2.62238 16.2997 2.62951 14.374C2.62951 7.88853 7.88855 2.61348 14.3684 2.61348C20.8483 2.61348 26.1262 7.88853 26.1262 14.374V14.4074C26.1262 14.4074 26.1262 14.4296 26.1262 14.4407C26.19 15.6957 25.7767 16.6951 24.9992 17.1801H24.9954ZM28.7519 14.3779V14.3149C28.6993 6.41152 22.2682 0 14.3684 0C6.46861 0 0 6.44854 0 14.374C0 22.2997 6.44608 28.7519 14.3684 28.7519C18.002 28.7517 21.4972 27.3792 24.1352 24.9168C24.3913 24.6791 24.5419 24.3515 24.5547 24.0051C24.5673 23.6586 24.4409 23.3212 24.2028 23.0659C24.0889 22.9418 23.9511 22.841 23.7977 22.7694C23.644 22.698 23.4777 22.657 23.3079 22.6491C23.1383 22.6413 22.9688 22.6665 22.809 22.7234C22.6492 22.7803 22.5025 22.8677 22.3772 22.9808C21.2415 24.0425 19.8997 24.867 18.4326 25.4049C16.9655 25.9428 15.4032 26.183 13.8395 26.1111C12.2758 26.0392 10.7429 25.6567 9.333 24.9863C7.92307 24.3162 6.66512 23.3721 5.63468 22.2108L11.7577 12.5121V16.9876C11.7577 19.1383 12.6029 19.8343 13.3129 20.0379C14.0228 20.2415 15.1084 20.1007 16.2466 18.2795L19.6274 12.886C19.7327 12.712 19.834 12.5639 19.9242 12.4343V15.1774C19.9242 17.1875 20.7431 18.794 22.1781 19.5862C22.8306 19.9334 23.5659 20.101 24.3067 20.0717C25.0477 20.0424 25.7669 19.8172 26.389 19.4197C27.9668 18.409 28.827 16.5804 28.7368 14.3779H28.7519Z" fill="#17181B"/>
</svg>
