<svg width="59" height="65" viewBox="0 0 59 65" fill="none" xmlns="http://www.w3.org/2000/svg">
<path d="M31.8119 54.469C43.2001 54.469 52.4321 45.237 52.4321 33.8487C52.4321 22.4605 43.2001 13.2285 31.8119 13.2285C20.4236 13.2285 11.1917 22.4605 11.1917 33.8487C11.1917 45.237 20.4236 54.469 31.8119 54.469Z" fill="#F6E266"/>
<path d="M45.0297 18.023C48.0222 21.6021 49.8242 26.2107 49.8242 31.2409C49.8242 42.6291 40.5922 51.8611 29.2039 51.8611C24.1738 51.8611 19.5651 50.0591 15.9861 47.0666C19.7687 51.5906 25.4537 54.469 31.8118 54.469C43.2 54.469 52.4321 45.2371 52.4321 33.8487C52.4321 27.4907 49.5537 21.8056 45.0297 18.023Z" fill="#ECBE6B"/>
<path d="M31.8119 49.2841C40.3366 49.2841 47.2473 42.3734 47.2473 33.8487C47.2473 25.324 40.3366 18.4134 31.8119 18.4134C23.2872 18.4134 16.3766 25.324 16.3766 33.8487C16.3766 42.3734 23.2872 49.2841 31.8119 49.2841Z" fill="#EAB14D"/>
<path d="M33.5899 32.8339C33.3022 32.7322 33.0078 32.6255 32.7143 32.5143V27.8282C33.4528 28.0051 33.8925 28.3786 33.9307 28.412C34.3333 28.7765 34.9555 28.7492 35.3242 28.3491C35.6953 27.9468 35.67 27.3198 35.2677 26.9488C35.2113 26.8969 34.2644 26.044 32.7143 25.8113V24.8541C32.7143 24.3067 32.2707 23.8631 31.7233 23.8631C31.1759 23.8631 30.7323 24.3067 30.7323 24.8541V25.8873C30.5851 25.9196 30.436 25.957 30.2834 26.0028C28.8658 26.4299 27.8065 27.6431 27.519 29.169C27.2568 30.5603 27.7025 31.902 28.6822 32.6704C29.2013 33.0775 29.8474 33.4505 30.7323 33.8443V39.7862C29.9679 39.7297 29.436 39.5428 28.5675 38.9747C28.1094 38.6751 27.4952 38.8033 27.1957 39.2615C26.8961 39.7194 27.0245 40.3336 27.4825 40.6332C28.7494 41.462 29.6148 41.709 30.7323 41.7719V42.8436C30.7323 43.3911 31.1759 43.8346 31.7233 43.8346C32.2707 43.8346 32.7143 43.3911 32.7143 42.8436V41.6931C34.9377 41.2568 36.2363 39.4236 36.5241 37.711C36.8943 35.5092 35.7426 33.5947 33.5899 32.8339ZM29.9054 31.1106C29.5102 30.8007 29.342 30.1972 29.4667 29.5358C29.5784 28.9431 29.9697 28.2311 30.7323 27.9431V31.6392C30.4211 31.4703 30.1395 31.2943 29.9054 31.1106ZM34.5697 37.3824C34.4172 38.2896 33.7854 39.2512 32.7143 39.6344V34.6256C32.7857 34.6512 32.8557 34.6766 32.9292 34.7026C34.7605 35.3498 34.6479 36.9175 34.5697 37.3824Z" fill="#F6E266"/>
<path d="M57.0384 5.26103L49.1784 0.130212C48.6511 -0.213958 47.9523 0.164363 47.9523 0.79405V2.69746H31.3929C14.1962 2.69746 -0.0621304 16.7674 0.000203609 33.964C0.0606333 50.6531 13.2451 64.2493 29.7709 64.9699C30.5229 65.0027 31.1512 64.4014 31.1512 63.6487V59.833C31.1512 59.1261 30.5945 58.5491 29.8884 58.5136C16.8507 57.8568 6.47837 47.0893 6.45476 33.8939C6.43038 20.2857 17.7546 9.15227 31.3629 9.15227H47.9523V11.0557C47.9523 11.6854 48.6512 12.0638 49.1784 11.7195L57.0384 6.5887C57.5176 6.27589 57.5176 5.57384 57.0384 5.26103Z" fill="#D3EFFB"/>
<path d="M36.7817 58.5452H38.9126C39.6423 58.5452 40.2339 59.1368 40.2339 59.8665V63.6787C40.2339 64.4084 39.6423 65 38.9126 65H36.7817C36.0519 65 35.4603 64.4084 35.4603 63.6787V59.8665C35.4603 59.1368 36.0519 58.5452 36.7817 58.5452Z" fill="#D3EFFB"/>
<path d="M45.6923 58.5452H47.8232C48.5529 58.5452 49.1445 59.1368 49.1445 59.8665V63.6787C49.1445 64.4084 48.5529 65 47.8232 65H45.6923C44.9626 65 44.371 64.4084 44.371 63.6787V59.8665C44.371 59.1368 44.9626 58.5452 45.6923 58.5452Z" fill="#B1E4F9"/>
<path d="M54.6031 58.5452H56.734C57.4637 58.5452 58.0553 59.1368 58.0553 59.8665V63.6787C58.0553 64.4084 57.4637 65 56.734 65H54.6031C53.8733 65 53.2817 64.4084 53.2817 63.6787V59.8665C53.2817 59.1368 53.8733 58.5452 54.6031 58.5452Z" fill="#90D8F9"/>
</svg>
