<svg width="221" height="45" viewBox="0 0 221 45" fill="none" xmlns="http://www.w3.org/2000/svg">
<path d="M17.6382 27.6314C17.9826 27.0277 18.3255 26.4208 18.6715 25.8211C19.4545 24.4604 20.2389 23.0999 21.0245 21.7398C21.8597 20.2908 22.6949 18.8418 23.53 17.3928C24.1054 16.3958 24.6814 15.3988 25.2579 14.4018C25.3127 14.3066 25.3627 14.2057 25.4999 14.2259H29.0976C29.2145 14.2259 29.3315 14.2356 29.4485 14.2356H40.8224C40.6964 14.5036 40.5534 14.7632 40.394 15.0128C39.9834 15.7295 39.5656 16.4413 39.1606 17.1612C39.1295 17.2313 39.0772 17.2898 39.011 17.3284C38.9449 17.3671 38.8683 17.384 38.792 17.3767C36.2424 17.3692 33.6926 17.3678 31.1425 17.3727C31.0537 17.3727 30.9642 17.3815 30.8755 17.3864C30.2301 17.3864 29.5808 17.3775 28.933 17.3775C28.3821 17.3775 27.8311 17.3848 27.2802 17.3888C27.0833 17.3162 27.0664 17.505 27.0124 17.597C26.4896 18.4905 25.9782 19.3912 25.4612 20.2886C24.8416 21.3647 24.2211 22.4408 23.5994 23.5169C23.121 24.3442 22.6395 25.169 22.1643 25.9979C21.8522 26.5419 21.5481 27.0899 21.2399 27.6355L17.6382 27.6314Z" fill="#FC0101"/>
<path d="M27.2786 17.3856C27.8295 17.3856 28.3805 17.3751 28.9314 17.3743C29.5768 17.3743 30.2261 17.3799 30.8739 17.3832L29.2525 20.2079C28.4867 21.5391 27.7206 22.8702 26.9543 24.2013C26.3396 25.2659 25.7209 26.328 25.1071 27.3933C24.4932 28.4587 23.8825 29.5224 23.2759 30.5902C23.2508 30.6407 23.2134 30.6842 23.1672 30.7166C23.121 30.749 23.0674 30.7693 23.0114 30.7758H19.5653C19.5253 30.7792 19.4856 30.7859 19.4467 30.796C19.3814 30.7153 19.2919 30.754 19.2144 30.754C15.4441 30.754 11.6738 30.754 7.90345 30.754H7.69049C7.81956 30.5248 7.93249 30.3238 8.04623 30.1245C8.48586 29.3618 8.92871 28.5999 9.36592 27.8356C9.39448 27.7728 9.44175 27.7204 9.50126 27.6856C9.56076 27.6508 9.62958 27.6352 9.69826 27.6411C12.2349 27.6481 14.7713 27.6497 17.3075 27.6459C17.418 27.6459 17.5277 27.6411 17.6382 27.6387H21.2375C21.2764 27.6521 21.319 27.6501 21.3564 27.6331C21.3939 27.6162 21.4235 27.5855 21.4392 27.5475C21.9538 26.6468 22.4653 25.7445 22.9831 24.8446C23.9361 23.1879 24.8909 21.5321 25.8476 19.877L27.2786 17.3856Z" fill="#0101FB"/>
<path d="M20.4526 7.07518C16.842 7.07518 13.2314 7.07356 9.6208 7.07033C9.57831 7.06597 9.53553 7.07528 9.49869 7.09691C9.46184 7.11853 9.43285 7.15135 9.41591 7.19059C8.4092 8.94248 7.399 10.6911 6.3853 12.4366C5.49717 13.9781 4.60178 15.5116 3.73139 17.0595C3.59023 17.3105 3.44099 17.3775 3.17399 17.3735C2.17051 17.359 1.17509 17.3678 0.17564 17.3678C0.0312485 17.3678 -0.0663572 17.3872 0.0546416 17.1846C0.875013 15.7803 1.68006 14.3663 2.49317 12.9572C3.21916 11.6925 3.95968 10.431 4.6897 9.16389C5.66253 7.4771 6.63348 5.79004 7.60254 4.10271C7.66062 4.00263 7.71064 3.92838 7.85906 3.92919C12.6345 3.93511 17.4096 3.93672 22.1845 3.93403C22.2119 3.93403 22.2394 3.93403 22.2652 3.93403C22.1228 4.23151 21.9636 4.52065 21.7884 4.80003C21.5021 5.29234 21.2351 5.79677 20.939 6.28263C20.7801 6.553 20.672 6.84758 20.4526 7.07518Z" fill="#0101FB"/>
<path d="M28.036 37.9483C28.1167 37.9426 28.1973 37.9321 28.2828 37.9321C31.7843 37.9321 35.2857 37.9321 38.7871 37.9321C38.9783 37.9321 39.0671 37.8684 39.1614 37.6997C39.6124 36.8878 40.0875 36.0855 40.5529 35.2849C41.4311 33.7665 42.3085 32.2479 43.185 30.729C43.7508 29.7486 44.3154 28.768 44.879 27.7872C44.921 27.7153 44.9492 27.633 45.071 27.6338C46.2221 27.6395 47.3724 27.6338 48.5622 27.6338L48.0847 28.4611C47.3372 29.7567 46.59 31.0526 45.843 32.3488C44.8809 34.0167 43.9188 35.6847 42.9568 37.3526C42.2921 38.5043 41.6258 39.6552 40.9683 40.811C40.9336 40.8895 40.875 40.9552 40.8009 40.9986C40.7267 41.0421 40.6409 41.0611 40.5553 41.0531C35.8617 41.045 31.1677 41.0429 26.4735 41.0466C26.3977 41.0466 26.3219 41.0466 26.246 41.0466C26.246 41.0329 26.2396 41.016 26.246 41.0063C26.5461 40.4924 26.8467 39.9789 27.1479 39.4656L28.036 37.9483Z" fill="#FC0101"/>
<path d="M29.0985 14.2202H25.5008C25.0496 13.4336 24.5984 12.647 24.1472 11.8603C23.539 10.8014 22.9302 9.74255 22.321 8.68367C22.1507 8.38908 21.9741 8.09854 21.8007 7.80638C22.1771 7.15587 22.556 6.50564 22.9372 5.85567C23.1593 5.47527 23.382 5.09514 23.6052 4.71527C23.9189 5.24875 24.236 5.78061 24.5465 6.31651C25.393 7.77786 26.2375 9.24028 27.0802 10.7038C27.7535 11.8783 28.4263 13.0505 29.0985 14.2202Z" fill="#0101FB"/>
<path d="M19.4467 30.7903C19.4855 30.7803 19.5252 30.7735 19.5652 30.7701H23.0105C23.8268 32.1868 24.6434 33.6038 25.4603 35.021C25.8249 35.6522 26.1927 36.2809 26.5582 36.912C26.6057 36.9927 26.6445 37.0823 26.6872 37.1678C26.6251 37.3995 26.4896 37.5988 26.3646 37.7957C26.0008 38.3841 25.6765 38.9951 25.3216 39.5875C25.186 39.8134 25.0739 40.0548 24.9077 40.2622C24.5488 39.6504 24.1882 39.0411 23.8325 38.4277C23.2791 37.4721 22.7306 36.5125 22.178 35.5561C21.2751 33.9931 20.3714 32.4303 19.4668 30.8678C19.4571 30.8428 19.4504 30.8168 19.4467 30.7903Z" fill="#FC0101"/>
<path d="M24.9109 40.2638C25.0779 40.0564 25.1892 39.8151 25.3247 39.5891C25.6797 38.9959 26.0039 38.3857 26.3677 37.7974C26.4895 37.6004 26.6251 37.4011 26.6904 37.1695C26.8921 36.9556 27.0026 36.6852 27.1478 36.4358C27.963 35.0369 28.7735 33.6345 29.579 32.2285C29.8167 31.8158 30.0534 31.4026 30.2889 30.9889C30.3381 30.9025 30.3696 30.8621 30.4833 30.9348C30.835 31.1543 31.2012 31.3504 31.5642 31.5514C31.6578 31.603 31.6651 31.6482 31.6094 31.7435C31.0743 32.6517 30.5452 33.5613 30.0219 34.4722C29.3637 35.6129 28.707 36.7543 28.052 37.8966C28.0449 37.913 28.0395 37.93 28.0359 37.9475L27.1486 39.4632C26.848 39.9765 26.5474 40.49 26.2467 41.0039C26.2411 41.0136 26.2467 41.0305 26.2467 41.0442C25.82 41.7206 25.4401 42.4243 25.0368 43.1168C24.6923 43.7116 24.3463 44.3064 24.0058 44.9037C23.947 45.0062 23.9098 45.0312 23.7929 44.9578C23.4509 44.7455 23.0959 44.5542 22.7442 44.3581C22.6442 44.3024 22.6273 44.2588 22.6902 44.1507C23.1796 43.3145 23.6636 42.4752 24.1422 41.6326C24.4011 41.1766 24.6883 40.7384 24.9109 40.2638Z" fill="#0101FB"/>
<path d="M23.6035 4.72254C23.3809 5.1024 23.1582 5.48253 22.9356 5.86293C22.5565 6.5129 22.1776 7.16314 21.799 7.81364C21.3225 8.64224 20.8461 9.47111 20.3696 10.3002C19.6638 11.5254 18.9555 12.7481 18.2554 13.9765C18.1803 14.1072 18.1231 14.1137 18.0053 14.0443C17.6641 13.8425 17.3188 13.648 16.9728 13.4535C16.8784 13.4002 16.8582 13.3502 16.9187 13.2461C17.5237 12.2092 18.1255 11.1708 18.724 10.1308C19.2946 9.14505 19.8646 8.15934 20.4341 7.17363C20.445 7.14249 20.4504 7.10974 20.4503 7.07678C20.6697 6.84918 20.7778 6.55218 20.9343 6.28826C21.2303 5.80402 21.4989 5.29798 21.7837 4.80566C21.9589 4.52628 22.1181 4.23715 22.2604 3.93967C22.5218 3.61684 22.6912 3.2359 22.9057 2.88159C23.322 2.18428 23.7172 1.47405 24.1214 0.768666C24.2496 0.545105 24.3803 0.323159 24.5053 0.097985C24.5618 -0.00370672 24.6175 -0.0303403 24.7288 0.0374542C25.0794 0.249984 25.4343 0.454982 25.7936 0.652447C25.8904 0.705714 25.8912 0.737997 25.8396 0.827582C25.298 1.76003 24.7603 2.69435 24.2262 3.63056C24.0189 3.99213 23.8116 4.35774 23.6035 4.72254Z" fill="#FC0101"/>
<path d="M64.5757 19.9399C64.5757 16.6358 64.5891 13.3317 64.5623 10.0303C64.5623 9.45659 64.6805 9.28069 65.2797 9.29152C67.6981 9.33211 70.1407 9.2374 72.5645 9.33211C74.3703 9.40517 76.1894 9.60271 77.8877 10.3063C80.2443 11.2859 81.9587 12.9366 82.7111 15.4289C83.6301 18.4732 83.7456 21.5662 82.4424 24.5131C80.5614 28.7291 77.0681 30.5097 72.6478 30.6694C70.1918 30.7587 67.7277 30.6694 65.269 30.7045C64.6429 30.7045 64.5623 30.4962 64.5676 29.9469C64.5864 26.6103 64.5757 23.2764 64.5757 19.9399ZM69.3265 19.975C69.3265 21.4976 69.3265 23.0202 69.3265 24.5429C69.3265 26.8241 69.3265 26.8484 71.5864 26.7808C73.5829 26.7212 75.4209 26.2693 76.7914 24.6024C77.8662 23.2845 78.2397 21.7529 78.2747 20.1239C78.3311 17.6316 77.7372 15.2936 74.9668 13.9459C73.2981 13.1341 71.4735 13.2586 69.6947 13.2748C69.1787 13.2748 69.3346 13.6997 69.3319 13.9811C69.3238 15.9809 69.3292 17.978 69.3265 19.9777V19.975Z" fill="white"/>
<path d="M103.235 14.4466C101.139 13.3209 99.0541 13.0638 96.891 13.0936C94.1636 13.145 91.9494 14.6117 91.0761 17.2311C90.1463 20.0157 90.2484 22.7271 92.1966 25.1031C93.8572 27.1272 96.7459 27.2679 98.8822 26.7267C98.9747 26.7147 99.0638 26.6838 99.1441 26.6358C99.2243 26.5879 99.294 26.524 99.3488 26.448C99.4037 26.3719 99.4425 26.2855 99.463 26.1938C99.4835 26.1021 99.4852 26.0072 99.468 25.9149C99.433 24.9299 99.4357 23.9449 99.468 22.9599C99.4841 22.4728 99.2852 22.3753 98.8553 22.3862C97.8772 22.4105 96.8991 22.3862 95.9209 22.4051C95.4615 22.4051 95.2277 22.3321 95.2519 21.7881C95.2949 20.8681 95.2895 19.9426 95.2519 19.0225C95.233 18.5409 95.4158 18.4516 95.8484 18.4543C98.4675 18.4723 101.087 18.4723 103.708 18.4543C104.149 18.4543 104.316 18.5652 104.313 19.0361C104.295 22.2833 104.295 25.5252 104.313 28.7616C104.335 28.9174 104.304 29.0762 104.223 29.2112C104.143 29.3463 104.019 29.4494 103.872 29.5031C99.4142 31.4352 94.8972 31.9142 90.45 29.6303C87.3813 28.0527 85.8657 25.2844 85.6131 21.8693C85.4412 19.4582 85.5271 17.0444 86.7498 14.8336C88.7248 11.267 91.7747 9.42145 95.7812 9.07508C98.0262 8.87844 100.288 9.06879 102.469 9.63794C103.069 9.79218 103.276 10.0411 103.249 10.6635C103.198 11.8704 103.235 13.0773 103.235 14.4466Z" fill="white"/>
<path d="M156.835 17.729C159.574 13.881 164.494 14.5169 165.896 18.0564C166.458 17.3934 166.893 16.6736 167.568 16.1405C169.43 14.6793 173.141 14.7875 174.573 16.5329C175.688 17.8859 175.887 19.5096 175.917 21.1738C175.954 24.0666 175.917 26.9594 175.944 29.8521C175.944 30.5043 175.793 30.7181 175.116 30.7018C173.504 30.6639 173.504 30.7018 173.504 29.0511C173.504 26.9215 173.48 24.7891 173.504 22.6621C173.506 21.7426 173.43 20.8245 173.275 19.9182C173.085 18.6896 172.555 17.6532 171.238 17.3393C169.758 16.9848 168.444 17.269 167.458 18.5598C166.541 19.7585 166.383 21.1657 166.369 22.5972C166.345 25.0137 166.343 27.4302 166.369 29.8467C166.369 30.4826 166.262 30.7235 165.563 30.7045C163.951 30.6612 163.97 30.7045 163.951 29.0511C163.913 26.2558 164.123 23.4523 163.849 20.6624C163.615 18.2783 162.642 17.2311 160.657 17.1932C158.931 17.1607 157.714 17.9617 157.021 20.27C156.79 21.0358 156.827 21.8395 156.825 22.6297C156.825 25.0462 156.806 27.4627 156.825 29.8792C156.825 30.4556 156.741 30.7099 156.075 30.691C154.361 30.6667 154.361 30.691 154.361 28.951C154.361 24.7214 154.379 20.4946 154.342 16.265C154.342 15.5506 154.511 15.3585 155.22 15.3801C156.809 15.4288 156.809 15.3801 156.814 16.9632C156.835 17.1661 156.835 17.3583 156.835 17.729Z" fill="white"/>
<path d="M108.679 19.9751C108.679 16.671 108.698 13.3669 108.663 10.0655C108.663 9.42686 108.846 9.28073 109.448 9.29426C111.181 9.33485 112.922 9.23473 114.65 9.32674C116.905 9.4458 119.116 9.849 120.562 11.865C122.008 13.881 122.064 16.1352 121.21 18.3596C120.264 20.8248 118.297 22.0696 115.757 22.489C114.478 22.6638 113.185 22.7173 111.896 22.6487C111.359 22.6487 111.203 22.8029 111.211 23.3414C111.238 25.5658 111.211 27.7875 111.235 30.0118C111.235 30.5531 111.076 30.6911 110.552 30.6965C108.688 30.7154 108.69 30.7371 108.688 28.8347C108.682 25.8887 108.679 22.9355 108.679 19.9751ZM111.216 15.9863C111.216 17.223 111.216 18.4597 111.216 19.6963C111.216 19.967 111.135 20.3269 111.579 20.3187C113.323 20.2782 115.104 20.5893 116.768 19.7775C118.668 18.8629 119.108 17.2203 119.003 15.2774C118.92 13.7241 118.144 12.6011 116.585 12.0301C115.026 11.4591 113.479 11.8055 111.934 11.6972C111.321 11.6539 111.197 11.9137 111.213 12.4685C111.24 13.6375 111.213 14.8119 111.213 15.9836L111.216 15.9863Z" fill="white"/>
<path d="M191.61 27.2354C191.61 28.0473 191.593 28.602 191.61 29.1649C191.613 29.303 191.576 29.439 191.504 29.5567C191.432 29.6743 191.328 29.7684 191.204 29.8278C189.011 31.2729 184.266 31.5624 182.097 29.7385C180.805 28.6647 179.936 27.1606 179.649 25.4982C179.082 22.6216 179.348 19.9047 181.261 17.5261C183.142 15.2151 185.598 14.7037 188.299 15.3234C190.742 15.8862 191.9 17.7588 192.432 20.1104C192.644 21.0467 192.574 22.0046 192.639 22.9436C192.684 23.6201 192.41 23.7284 191.833 23.723C188.877 23.6986 185.897 23.7636 182.933 23.6851C181.965 23.6607 181.893 24.0558 182.033 24.7865C182.707 28.3233 185.163 29.311 188.213 28.8212C189.463 28.5984 190.633 28.0519 191.61 27.2354ZM186.004 21.5203C187.17 21.5203 188.337 21.5203 189.497 21.5203C189.766 21.5203 190.035 21.5879 190.081 21.1333C190.296 19.442 188.812 17.4476 187.16 17.2772C184.524 17.0065 182.914 18.1864 182.127 20.8789C181.963 21.4391 182.076 21.5365 182.589 21.5284C183.734 21.5067 184.87 21.5203 186.004 21.5203Z" fill="white"/>
<path d="M124.676 19.0334C124.609 16.2651 124.59 16.1974 127.033 15.4641C128.634 14.9738 130.339 14.941 131.958 15.3694C133.861 15.8781 135.183 17.6831 135.215 19.8696C135.266 23.2711 135.215 26.6726 135.239 30.0714C135.239 30.5991 135.062 30.6857 134.592 30.6965C132.748 30.7344 132.748 30.7506 132.724 28.667C132.318 28.786 132.168 29.1541 131.918 29.403C130.225 31.2025 127.062 31.6084 125.082 30.2825C123.375 29.1432 123.064 27.4519 123.314 25.5983C123.564 23.7446 125.052 22.2861 127.022 21.9045C128.618 21.596 130.228 21.3308 131.843 21.1522C132.681 21.0602 132.813 20.6543 132.708 19.9616C132.402 17.9429 131.208 17.1392 129.155 17.2393C127.473 17.3232 126.108 18.0349 124.676 19.0334ZM132.737 24.2561C132.439 23.9584 133.321 22.9031 132.141 23.079C130.604 23.3198 129.032 23.3793 127.538 23.8908C126.154 24.3697 125.552 25.3656 125.783 26.9053C125.95 28.0067 127.038 28.8347 128.269 28.9403C130.95 29.1784 132.893 26.9567 132.727 24.2561H132.737Z" fill="white"/>
<path d="M138.028 35.4889C140.285 35.9814 141.226 35.5403 142.177 33.5378C142.583 32.6827 142.9 31.787 143.292 30.9265C143.435 30.6126 143.292 30.4123 143.198 30.1445C142.239 27.709 141.317 25.2735 140.363 22.8219C139.409 20.3702 138.482 17.951 137.485 15.4154C138.308 15.4154 139.049 15.4397 139.788 15.4154C140.275 15.3937 140.326 15.7212 140.449 16.0567C141.689 19.6648 142.933 23.2729 144.182 26.8809C144.3 27.2219 144.469 27.5439 144.682 28.0229L147.135 21.3389C147.742 19.6828 148.384 18.0376 148.946 16.3652C149.191 15.6346 149.54 15.3504 150.338 15.391C151.84 15.4668 151.862 15.4208 151.303 16.8334C149.07 22.489 146.842 28.1474 144.585 33.7868C143.964 35.332 143.04 36.6688 141.479 37.4481C140.482 37.946 139.442 37.7187 138.415 37.7376C138.077 37.7376 138.052 37.4508 138.052 37.1829C138.031 36.6471 138.028 36.1059 138.028 35.4889Z" fill="white"/>
<path d="M198.728 17.9212C199.964 16.3111 201.208 15.3126 203.081 15.1556C206.386 14.885 208.337 16.5384 208.724 19.5638C209.181 23.1006 208.807 26.6645 208.915 30.2148C208.915 30.5206 208.85 30.7128 208.504 30.6776C208.441 30.673 208.378 30.673 208.315 30.6776C206.416 30.7669 206.416 30.7669 206.416 28.8591C206.416 26.4751 206.429 24.091 206.416 21.7097C206.418 21.1099 206.349 20.512 206.209 19.9291C205.741 18.1134 204.889 17.3719 203.178 17.1852C201.684 17.0201 200.082 17.9645 199.34 19.4096C198.83 20.4 198.736 21.458 198.733 22.5378C198.733 24.9732 198.717 27.433 198.733 29.8793C198.733 30.4584 198.653 30.7073 197.983 30.6911C196.269 30.6641 196.269 30.6911 196.269 28.943C196.269 24.7161 196.269 20.4893 196.269 16.2624C196.269 15.6481 196.339 15.364 197.062 15.3829C198.72 15.4235 198.722 15.3829 198.733 17.0742C198.728 17.2664 198.728 17.4504 198.728 17.9212Z" fill="white"/>
<path d="M220.456 28.5018C220.41 29.3001 220.837 30.1688 220.244 30.5936C219.411 31.1889 218.32 31.1348 217.328 30.9671C215.393 30.6153 214.3 29.3624 214.254 27.3599C214.187 24.3832 214.192 21.3876 214.216 18.4028C214.216 17.7209 214.098 17.3772 213.354 17.5098C213.139 17.5477 212.908 17.4855 212.693 17.5098C211.822 17.6559 211.497 17.388 211.535 16.4274C211.564 15.6156 211.72 15.2557 212.569 15.4018C212.876 15.4559 213.203 15.3802 213.512 15.4153C214.05 15.4776 214.246 15.2963 214.208 14.7388C214.163 14.0758 214.265 13.3858 214.181 12.739C214.082 11.9678 214.399 11.6377 215.084 11.386C216.656 10.8448 216.624 10.8042 216.654 12.4306C216.67 13.3993 216.234 14.6982 216.839 15.2449C217.376 15.7238 218.642 15.4559 219.575 15.372C220.451 15.2936 220.553 15.6751 220.496 16.3949C220.448 17.0146 220.649 17.6397 219.583 17.5288C218.631 17.4286 217.325 17.0823 216.78 17.6884C216.304 18.2296 216.648 19.5015 216.648 20.4513C216.648 22.516 216.589 24.5835 216.691 26.6428C216.788 28.6398 218.08 29.3948 219.943 28.6885C220.088 28.6534 220.225 28.5938 220.456 28.5018Z" fill="white"/>
</svg>
