<svg width="12" height="11" viewBox="0 0 12 11" fill="none" xmlns="http://www.w3.org/2000/svg">
<path d="M2.03915 6.95331L5.48615 10.4003H3.24754L1.99763 9.19192L2.03915 6.95331Z" fill="#464B4E"/>
<path d="M0 5.21005L1.22208 6.43216L1.23619 8.64331L0 7.46196V5.21005Z" fill="#464B4E"/>
<path d="M0.0202484 4.46311L6.57085 11L7.8207 10.9863L11.0206 7.82789V5.56186L7.20286 9.39339L1.65467 3.83151L5.45877 0.0137042L3.20646 0L0.0613606 3.18581L0.0202484 4.46311Z" fill="#464B4E"/>
<path d="M2.7529 3.83145L6.58444 0.0136414H7.83429L8.3426 0.563016L4.99151 3.84516L5.51348 4.36672L8.86415 1.07087L9.9629 2.16962L6.68074 5.49288L7.18899 6.01487L10.5123 2.7327L11.0068 3.21355L11.0205 4.43564L7.18899 8.28088L2.7529 3.83145Z" fill="#464B4E"/>
</svg>
