<svg width="22" height="27" viewBox="0 0 22 27" fill="none" xmlns="http://www.w3.org/2000/svg">
<path d="M8.12275 26.9806C8.15675 26.9959 8.194 27.0023 8.23113 26.9993C8.26825 26.9965 8.30406 26.9844 8.33528 26.9641C8.3665 26.9438 8.39215 26.9161 8.40987 26.8834C8.42759 26.8506 8.43682 26.814 8.43671 26.7769V6.26871C8.43671 6.26871 8.40688 5.19651 9.24044 5.10402L16.6546 2.64612L8.85585 0.0361682C8.5311 -0.0217534 8.19771 -0.00999759 7.87786 0.0706543L0.780791 2.42196C0.609011 2.45679 0.455624 2.55244 0.348888 2.69129C0.242155 2.83013 0.189265 3.00281 0.199964 3.17752L0.236069 16.0313C0.236069 16.0313 -0.176788 23.4536 8.12275 26.9806Z" fill="#186AB4"/>
<path d="M13.9971 17.3678L21.7741 14.7712L14.1259 12.1319C14.1259 12.1319 13.5353 11.8564 13.5463 12.4469L13.606 16.9442C13.606 16.9442 13.5557 17.4072 13.9971 17.3678Z" fill="#186AB4"/>
</svg>
