<svg width="27" height="26" viewBox="0 0 27 26" fill="none" xmlns="http://www.w3.org/2000/svg">
<path d="M4.82816 16.0684L12.9899 24.0342H7.68937L4.72986 21.2416L4.82816 16.0684Z" fill="#464B4E"/>
<path d="M0 12.0398L2.89365 14.8639L2.92705 19.9738L0 17.2438V12.0398Z" fill="#464B4E"/>
<path d="M0.0476074 10.3139L15.5581 25.42L18.5176 25.3883L26.0943 18.0895V12.853L17.0546 21.7073L3.91758 8.85429L12.9249 0.0316691L7.59191 0L0.144953 7.36212L0.0476074 10.3139Z" fill="#464B4E"/>
<path d="M6.51843 8.85437L15.5907 0.0317383H18.5502L19.7536 1.3013L11.819 8.88603L13.0549 10.0913L20.9886 2.47491L23.5902 5.01402L15.8187 12.6938L17.0223 13.9L24.8911 6.31525L26.062 7.42646L26.0945 10.2506L17.0223 19.1366L6.51843 8.85437Z" fill="#464B4E"/>
</svg>
