<svg width="12" height="13" viewBox="0 0 12 13" fill="none" xmlns="http://www.w3.org/2000/svg">
<path d="M3.71332 5.49548H1.44116V6.07891C1.44116 6.18532 1.52741 6.27157 1.63383 6.27157H3.52065C3.62706 6.27157 3.71332 6.18532 3.71332 6.07891V5.49548Z" fill="#DFEAEF"/>
<path d="M3.71332 11.1446H1.44116V10.5612C1.44116 10.4548 1.52741 10.3685 1.63383 10.3685H3.52065C3.62706 10.3685 3.71332 10.4548 3.71332 10.5612V11.1446Z" fill="#DFEAEF"/>
<path d="M10.3634 5.49548H1.31153C1.28652 5.49548 1.26624 5.4752 1.26624 5.45019V4.5163H10.4087V5.45019C10.4087 5.4752 10.3884 5.49548 10.3634 5.49548V5.49548Z" fill="#F1F4F6"/>
<path d="M10.8042 12.1264H0.870483V11.2456C0.870483 11.1898 0.915729 11.1446 0.971538 11.1446H10.7031C10.7589 11.1446 10.8042 11.1898 10.8042 11.2456V12.1264Z" fill="#D0E2E7"/>
<path d="M11.4629 12.1264H0.211772C0.155964 12.1264 0.110718 12.1716 0.110718 12.2274V12.8989C0.110718 12.9547 0.155964 13 0.211772 13H11.4629C11.5187 13 11.5639 12.9547 11.5639 12.8989V12.2274C11.5639 12.1716 11.5187 12.1264 11.4629 12.1264V12.1264Z" fill="#F1F4F6"/>
<path d="M10.4087 4.51628H1.26624L5.83743 1.05194L10.4087 4.51628Z" fill="#D0E2E7"/>
<path d="M5.83734 1.05194L5.65904 1.18707L8.24855 3.14956C8.60679 3.42104 8.41479 3.99225 7.9653 3.99225H1.95758L1.26611 4.51628H10.4085L5.83734 1.05194Z" fill="#B4D0D5"/>
<path d="M11.2446 5.04139L11.6571 4.49704C11.686 4.45901 11.6785 4.40477 11.6404 4.37596L5.88957 0.0175576C5.8587 -0.00585253 5.81604 -0.00585253 5.78517 0.0175576L0.0342995 4.37593C-0.00373559 4.40477 -0.0113274 4.45886 0.0175164 4.49689C0.116616 4.62765 0.331166 4.91076 0.430291 5.04152C0.459135 5.07955 0.513242 5.08689 0.551278 5.05807L5.78517 1.0915C5.81604 1.06809 5.85855 1.06799 5.88942 1.09138C6.40191 1.47978 10.5385 4.6147 11.1236 5.05818C11.1617 5.08702 11.2157 5.07943 11.2446 5.04139V5.04139Z" fill="#F1F4F6"/>
<path d="M3.33516 6.91627H1.81932C1.76351 6.91627 1.71826 6.87102 1.71826 6.81521V6.27158H3.43622V6.81521C3.43622 6.87102 3.39097 6.91627 3.33516 6.91627Z" fill="#F1F4F6"/>
<path d="M3.43622 10.3685H1.71826V9.82487C1.71826 9.76906 1.76351 9.72382 1.81932 9.72382H3.33516C3.39097 9.72382 3.43622 9.76906 3.43622 9.82487V10.3685Z" fill="#F1F4F6"/>
<path d="M1.96265 6.91626H3.19186V9.72382H1.96265V6.91626Z" fill="#D0E2E7"/>
<path d="M10.2336 5.49548H7.96143V6.07891C7.96143 6.18532 8.04768 6.27157 8.15409 6.27157H10.0409C10.1473 6.27157 10.2336 6.18532 10.2336 6.07891V5.49548Z" fill="#DFEAEF"/>
<path d="M10.2336 11.1446H7.96143V10.5612C7.96143 10.4548 8.04768 10.3685 8.15409 10.3685H10.0409C10.1473 10.3685 10.2336 10.4548 10.2336 10.5612V11.1446Z" fill="#DFEAEF"/>
<path d="M9.85542 6.91627H8.33958C8.28377 6.91627 8.23853 6.87102 8.23853 6.81521V6.27158H9.95648V6.81521C9.9565 6.87102 9.91126 6.91627 9.85542 6.91627V6.91627Z" fill="#F1F4F6"/>
<path d="M9.95648 10.3685H8.23853V9.82487C8.23853 9.76906 8.28377 9.72382 8.33958 9.72382H9.85542C9.91123 9.72382 9.95648 9.76906 9.95648 9.82487V10.3685Z" fill="#F1F4F6"/>
<path d="M8.48291 6.91626H9.71212V9.72382H8.48291V6.91626Z" fill="#D0E2E7"/>
<path d="M5.83742 3.58186C6.13118 3.58186 6.36931 3.34373 6.36931 3.04998C6.36931 2.75623 6.13118 2.5181 5.83742 2.5181C5.54367 2.5181 5.30554 2.75623 5.30554 3.04998C5.30554 3.34373 5.54367 3.58186 5.83742 3.58186Z" fill="#F1F4F6"/>
<path d="M7.28049 9.15647C7.28049 8.46018 6.71403 7.89372 6.01777 7.89372H5.65694C5.43079 7.89372 5.24678 7.70974 5.24678 7.48358C5.24678 7.25743 5.43076 7.07342 5.65694 7.07342H6.01777C6.18303 7.07342 6.33144 7.17181 6.39583 7.32405C6.48754 7.54089 6.73779 7.6423 6.95453 7.55061C7.17136 7.4589 7.2728 7.20875 7.18109 6.99192C7.01557 6.60055 6.66959 6.32491 6.26365 6.24478V5.92173C6.26365 5.68628 6.07279 5.49542 5.83734 5.49542C5.60189 5.49542 5.41103 5.68628 5.41103 5.92173V6.24485C4.83205 6.35959 4.39417 6.87139 4.39417 7.48356C4.39417 8.17982 4.96063 8.74628 5.65692 8.74628H6.01774C6.2439 8.74628 6.42788 8.93026 6.42788 9.15644C6.42788 9.38257 6.2439 9.56658 6.01774 9.56658H5.65692C5.48649 9.56658 5.33641 9.46402 5.27453 9.30536C5.18897 9.08601 4.94182 8.97751 4.72247 9.06306C4.50312 9.1486 4.39465 9.39577 4.48016 9.61512C4.6402 10.0255 4.99176 10.3138 5.41101 10.3956V10.7182C5.41101 10.9537 5.60187 11.1446 5.83732 11.1446C6.07276 11.1446 6.26362 10.9537 6.26362 10.7182V10.3951C6.84261 10.2804 7.28049 9.76863 7.28049 9.15647V9.15647Z" fill="#78D0B1"/>
<path d="M6.65709 6.72993C6.7488 6.94676 6.64737 7.19689 6.43053 7.28862C6.41611 7.29472 6.40156 7.29995 6.38691 7.30437C6.39006 7.31084 6.39305 7.31739 6.39587 7.32407C6.48758 7.5409 6.73783 7.64232 6.95457 7.55066C7.1714 7.45894 7.27284 7.2088 7.18113 6.99196C7.02134 6.6142 6.69345 6.34425 6.30579 6.25391C6.45577 6.37977 6.57736 6.54143 6.65709 6.72993Z" fill="#66B49D"/>
<path d="M6.30358 7.92636C6.58023 8.15818 6.75647 8.50613 6.75647 8.89448C6.75647 9.40767 6.44871 9.85033 6.00808 10.0476C5.84601 10.1202 5.73963 10.2787 5.73963 10.4563C5.73963 10.6488 5.61201 10.8115 5.43677 10.8644C5.49748 11.0308 5.65893 11.1488 5.84733 11.1445C6.08088 11.1392 6.26366 10.9398 6.26366 10.7062V10.3952C6.84264 10.2805 7.28051 9.76865 7.28051 9.15651C7.28051 8.55849 6.86265 8.05623 6.30358 7.92636V7.92636Z" fill="#66B49D"/>
</svg>
