<svg width="17" height="13" viewBox="0 0 17 13" fill="none" xmlns="http://www.w3.org/2000/svg">
<path d="M15.1237 9.3591L16.0664 3.33986C16.1645 2.72904 15.7489 2.15431 15.138 2.05601L2.41756 0.0143198C1.80675 -0.0837035 1.23205 0.331914 1.13403 0.94273L0.682007 3.7577V9.32408L15.1237 9.3591Z" fill="#146AA8"/>
<path d="M15.138 2.05601L11.5251 1.47629C9.09861 5.18914 5.17595 7.76074 2.16772 9.32773L15.1237 9.3591L16.0664 3.33986C16.1644 2.72901 15.7488 2.15432 15.138 2.05601Z" fill="#126099"/>
<path d="M1.12028 3.47766H14.0034C14.6221 3.47766 15.1237 3.97927 15.1237 4.59794V11.8797C15.1237 12.4984 14.6221 13 14.0034 13H1.12028C0.501611 13 0 12.4984 0 11.8797V4.59794C0 3.97927 0.501611 3.47766 1.12028 3.47766Z" fill="#4398D1"/>
<path d="M14.0035 3.47766H13.7795C11.1356 8.17135 6.19548 11.391 3.17969 13H14.0035C14.6222 13 15.1238 12.4984 15.1238 11.8797V4.59794C15.1238 3.97927 14.6222 3.47766 14.0035 3.47766Z" fill="#3E8CC7"/>
<path d="M4.20107 4.87799H1.40039V7.11855H4.20107V4.87799Z" fill="#FDB62F"/>
<path d="M2.24061 5.7182H1.40039V6.27832H2.24061V5.7182Z" fill="#FD7B2F"/>
<path d="M4.20118 5.71817H3.36096V6.27829H4.20118V5.71817Z" fill="#FD7B2F"/>
<path d="M12.3231 11.5996C13.0965 11.5996 13.7234 10.9727 13.7234 10.1993C13.7234 9.4259 13.0965 8.79895 12.3231 8.79895C11.5497 8.79895 10.9227 9.4259 10.9227 10.1993C10.9227 10.9727 11.5497 11.5996 12.3231 11.5996Z" fill="#FDB62F"/>
<path d="M10.6425 11.5996C11.4159 11.5996 12.0429 10.9727 12.0429 10.1993C12.0429 9.4259 11.4159 8.79895 10.6425 8.79895C9.86914 8.79895 9.24219 9.4259 9.24219 10.1993C9.24219 10.9727 9.86914 11.5996 10.6425 11.5996Z" fill="#DE4C3C"/>
<path d="M2.80076 9.07901H1.12036V9.63913H2.80076V9.07901Z" fill="#87CED9"/>
<path d="M5.60142 9.07901H3.92102V9.63913H5.60142V9.07901Z" fill="#87CED9"/>
<path d="M8.40208 9.07901H6.72168V9.63913H8.40208V9.07901Z" fill="#87CED9"/>
<path d="M8.40216 10.7595H1.12036V11.3196H8.40216V10.7595Z" fill="#87CED9"/>
<path d="M10.3626 4.87799H9.80249V5.99827H10.3626V4.87799Z" fill="#87CED9"/>
<path d="M11.4829 4.87799H10.9227V5.99827H11.4829V4.87799Z" fill="#87CED9"/>
<path d="M12.6031 4.87799H12.043V5.99827H12.6031V4.87799Z" fill="#87CED9"/>
<path d="M13.7233 4.87799H13.1632V5.99827H13.7233V4.87799Z" fill="#87CED9"/>
</svg>
