<svg width="146" height="40" viewBox="0 0 146 40" fill="none" xmlns="http://www.w3.org/2000/svg">
<path d="M64.9193 19.4911L64.8806 5.92795H62.3036L57.3046 14.3565L52.2281 5.92795H49.6317V19.4911H52.5769V11.5276L56.5489 18.0573H57.9634L61.9548 11.3532L61.9742 19.4911H64.9193ZM75.3644 9.06685L72.4193 16.1391L69.4935 9.06685H66.374L70.8886 19.5686L70.8498 19.6655C70.4429 20.5955 69.9779 20.9637 69.1448 20.9637C68.5441 20.9637 67.9047 20.7118 67.4397 20.3049L66.3352 22.4556C67.0134 23.0563 68.176 23.4051 69.2416 23.4051C71.1211 23.4051 72.5549 22.6494 73.5625 20.1305L78.2708 9.06685H75.3644ZM86.1326 19.7236C88.4965 19.7236 90.4535 18.8711 91.7323 17.3016L89.7172 15.4415C88.8065 16.5072 87.6633 17.0497 86.307 17.0497C83.7688 17.0497 81.9668 15.2672 81.9668 12.7095C81.9668 10.1519 83.7688 8.36932 86.307 8.36932C87.6633 8.36932 88.8065 8.91184 89.7172 9.95815L91.7323 8.09805C90.4535 6.54798 88.4965 5.69543 86.152 5.69543C81.928 5.69543 78.7891 8.6212 78.7891 12.7095C78.7891 16.7979 81.9281 19.7236 86.1326 19.7236ZM96.5259 10.4425V9.06685H93.6389V19.4911H96.6615V14.5696C96.6615 12.5739 97.766 11.6632 99.4323 11.6632C99.6648 11.6632 99.8586 11.6826 100.11 11.702V8.91184C98.5023 8.91184 97.2622 9.43499 96.5259 10.4425ZM109.708 9.06685L106.763 16.1391L103.837 9.06685H100.717L105.232 19.5686L105.193 19.6655C104.786 20.5955 104.321 20.9637 103.488 20.9637C102.888 20.9637 102.248 20.7118 101.783 20.3049L100.679 22.4556C101.357 23.0563 102.519 23.4051 103.585 23.4051C105.465 23.4051 106.898 22.6494 107.906 20.1305L112.614 9.06685H109.708ZM120.009 8.91184C118.614 8.91184 117.49 9.35749 116.735 10.2682V9.06685H113.848V23.2501H116.87V18.3867C117.645 19.2392 118.711 19.6461 120.009 19.6461C122.935 19.6461 125.202 17.5535 125.202 14.279C125.202 11.0044 122.935 8.91184 120.009 8.91184ZM119.486 17.166C117.975 17.166 116.831 16.0809 116.831 14.279C116.831 12.477 117.975 11.392 119.486 11.392C120.997 11.392 122.14 12.477 122.14 14.279C122.14 16.0809 120.997 17.166 119.486 17.166ZM133.135 16.856C132.805 17.1079 132.36 17.2435 131.914 17.2435C131.1 17.2435 130.616 16.7591 130.616 15.8678V11.6245H133.212V9.29936H130.616V6.76111H127.593V9.29936H125.985V11.6245H127.593V15.9066C127.593 18.3867 129.027 19.6461 131.488 19.6461C132.418 19.6461 133.329 19.433 133.949 18.9873L133.135 16.856ZM140.284 19.6461C143.597 19.6461 146 17.4179 146 14.279C146 11.1401 143.597 8.91184 140.284 8.91184C136.971 8.91184 134.549 11.1401 134.549 14.279C134.549 17.4179 136.971 19.6461 140.284 19.6461ZM140.284 17.166C138.773 17.166 137.61 16.0809 137.61 14.279C137.61 12.477 138.773 11.392 140.284 11.392C141.795 11.392 142.939 12.477 142.939 14.279C142.939 16.0809 141.795 17.166 140.284 17.166Z" fill="white"/>
<path d="M56.0885 31.1992C57.0186 30.8213 57.6435 30.0511 57.6435 28.8886C57.6435 27.2319 56.3356 26.2728 54.0686 26.2728H49.6799V36.4452H54.3592C56.9023 36.4452 58.1811 35.457 58.1811 33.7277C58.1811 32.3472 57.3964 31.4898 56.0885 31.1992ZM53.9959 27.1593C55.6235 27.1593 56.5681 27.7841 56.5681 29.0048C56.5681 30.2255 55.6235 30.8504 53.9959 30.8504H50.7553V27.1593H53.9959ZM54.3447 35.5587H50.7553V31.7368H54.3447C56.1321 31.7368 57.1058 32.3181 57.1058 33.6405C57.1058 34.9775 56.1321 35.5587 54.3447 35.5587ZM61.4058 30.2982V28.8014H60.4176V36.4452H61.4494V32.5506C61.4494 30.7487 62.423 29.7314 64.0215 29.7314C64.0942 29.7314 64.1814 29.746 64.2686 29.746V28.7433C62.859 28.7433 61.8853 29.2809 61.4058 30.2982ZM68.7967 28.7433C67.5906 28.7433 66.4571 29.1211 65.6869 29.775L66.1519 30.5452C66.7768 29.993 67.7068 29.6442 68.695 29.6442C70.1192 29.6442 70.8603 30.3563 70.8603 31.6642V32.1292H68.4334C66.2391 32.1292 65.4835 33.1174 65.4835 34.2945C65.4835 35.6169 66.5443 36.5179 68.2736 36.5179C69.5379 36.5179 70.4389 36.0383 70.9039 35.2536V36.4452H71.892V31.7078C71.892 29.7314 70.7731 28.7433 68.7967 28.7433ZM68.4334 35.7041C67.2128 35.7041 66.5007 35.1519 66.5007 34.2654C66.5007 33.4807 66.9802 32.8994 68.4625 32.8994H70.8603V34.1491C70.4534 35.1519 69.596 35.7041 68.4334 35.7041ZM78.5889 28.7433C77.2665 28.7433 76.2347 29.2809 75.6825 30.211V28.8014H74.6943V36.4452H75.7261V32.4344C75.7261 30.6905 76.7578 29.6733 78.4 29.6733C79.8532 29.6733 80.696 30.5016 80.696 32.1147V36.4452H81.7278V32.0129C81.7278 29.8186 80.449 28.7433 78.5889 28.7433ZM90.5007 25.6625V30.2546C89.8613 29.2664 88.815 28.7433 87.5943 28.7433C85.4145 28.7433 83.787 30.3127 83.787 32.6233C83.787 34.9339 85.4145 36.5179 87.5943 36.5179C88.8586 36.5179 89.9194 35.9656 90.5443 34.9339V36.4452H91.5325V25.6625H90.5007ZM87.6815 35.6023C86.0539 35.6023 84.8333 34.4107 84.8333 32.6233C84.8333 30.8359 86.0539 29.6442 87.6815 29.6442C89.2946 29.6442 90.5153 30.8359 90.5153 32.6233C90.5153 34.4107 89.2946 35.6023 87.6815 35.6023Z" fill="white"/>
<path d="M30.3346 26.0669H21.0535C18.5744 26.0669 16.3785 24.5131 15.5093 22.2593L16.6864 21.0746C17.1274 23.1173 18.9557 24.5953 21.0535 24.5953H22.1329H24.9591H30.3346C31.3637 24.5953 32.2007 23.758 32.2007 22.7289C32.2007 21.6998 31.3637 20.8628 30.3346 20.8628H27.4276V19.3909H30.3346C31.3637 19.3909 32.2007 18.5539 32.2007 17.5248C32.2007 16.4957 31.3637 15.6587 30.3346 15.6587H26.7489V14.1868H30.3346C32.1749 14.1868 33.6722 15.6845 33.6722 17.5248C33.6722 18.5759 33.1836 19.5146 32.4217 20.1267C33.1836 20.7391 33.6722 21.6779 33.6722 22.7289C33.6722 24.5693 32.1749 26.0669 30.3346 26.0669ZM6.51948 16.4179V25.3311H5.04792V13.4277L12.543 19.1985L17.1031 15.6909C18.1919 14.7208 19.5933 14.1868 21.0535 14.1868H24.0613V15.6587H21.0535C19.9477 15.6587 18.8868 16.0655 18.0659 16.8042L18.0223 16.8405L12.5427 21.0552L6.51948 16.4179ZM19.6182 0C8.78332 0 0 8.78332 0 19.6182C0 30.453 8.78332 39.2363 19.6182 39.2363C30.453 39.2363 39.2363 30.453 39.2363 19.6182C39.2363 8.78332 30.453 0 19.6182 0Z" fill="white"/>
</svg>
