<svg width="107" height="22" viewBox="0 0 107 22" fill="none" xmlns="http://www.w3.org/2000/svg">
<path d="M6.67986 10.8549L2.97288 5.79694L1.96128 4.41602C1.52315 5.02835 1.14924 5.69145 0.84874 6.39109C0.844144 6.40018 0.841845 6.40703 0.839564 6.4163C0.708796 6.71904 0.594117 7.02863 0.493176 7.34526C0.486298 7.36824 0.47942 7.39346 0.472542 7.41644C0.431257 7.54715 0.392253 7.68025 0.357845 7.81558C0.346371 7.84988 0.337194 7.88659 0.328018 7.92106C0.29361 8.05862 0.261502 8.19635 0.231691 8.33615C0.227094 8.3569 0.222498 8.37988 0.217917 8.40269C0.183511 8.56564 0.153683 8.72858 0.128452 8.89359C0.123855 8.91897 0.121575 8.94419 0.116995 8.9694C0.0963436 9.10473 0.080272 9.24006 0.0642176 9.37762C0.059638 9.42582 0.0550412 9.47625 0.0504616 9.52667C0.0389868 9.64606 0.0298272 9.76526 0.0206337 9.88464C0.0183525 9.93283 0.0160544 9.98327 0.0137561 10.0315C0.00459681 10.1966 0 10.3618 0 10.5292C0 13.6513 1.36714 16.4611 3.53259 18.3904L5.17503 16.4772C3.54865 15.0114 2.52329 12.8873 2.52329 10.5292C2.52329 10.3663 2.53015 10.2081 2.53935 10.0474C2.54165 9.99699 2.54622 9.94656 2.5508 9.89373C2.55998 9.78361 2.56917 9.6759 2.58292 9.56801C2.58751 9.53371 2.5921 9.50147 2.59668 9.46716L6.52378 14.9082L10.1849 10.6484V6.77873L6.67986 10.8549Z" fill="#002A51"/>
<path d="M21.0441 10.0315C21.0419 9.98327 21.0396 9.93507 21.0372 9.88464C21.0282 9.76526 21.0189 9.64606 21.0075 9.52667C21.003 9.47625 20.9983 9.42582 20.9937 9.37762C20.9778 9.24006 20.9616 9.10473 20.941 8.967C20.9364 8.94419 20.9341 8.91897 20.9295 8.89359C20.9043 8.72858 20.8745 8.56564 20.84 8.40269C20.8353 8.37988 20.8309 8.35913 20.8263 8.33615C20.7965 8.19635 20.7644 8.05862 20.7298 7.92106C20.7208 7.88659 20.7115 7.84988 20.7024 7.81558C20.6658 7.68247 20.6267 7.54715 20.5855 7.41644C20.5786 7.39105 20.5716 7.36824 20.5647 7.34526C20.4639 7.02863 20.3491 6.71904 20.2184 6.4163C20.2161 6.40703 20.2138 6.40018 20.2092 6.39109C19.9087 5.69145 19.5347 5.02835 19.0966 4.41602L18.1286 5.73502L14.3781 10.8549L10.873 6.77873V10.6484L14.5342 14.9082L18.4613 9.46716C18.4658 9.50147 18.4704 9.53371 18.475 9.56801C18.4888 9.6759 18.4981 9.78361 18.5071 9.89373C18.5118 9.94433 18.5164 9.99699 18.5186 10.0474C18.5278 10.2058 18.5347 10.3662 18.5347 10.5268V10.5292C18.5347 12.4607 17.8464 14.2339 16.7041 15.6193C16.5413 15.8165 16.3693 16.0047 16.188 16.186C16.0894 16.2847 15.9861 16.3833 15.8806 16.475L17.5276 18.3904C19.693 16.4589 21.058 13.6513 21.058 10.5292C21.058 10.3618 21.0534 10.1966 21.0441 10.0315Z" fill="#002A51"/>
<path d="M14.6785 17.3739C13.4674 18.1103 12.0473 18.5346 10.5289 18.5346C8.71676 18.5346 7.04443 17.9314 5.70023 16.9106L4.05322 18.826C5.84015 20.2231 8.08814 21.0581 10.5289 21.0581C11.981 21.0581 13.3642 20.762 14.6235 20.2299C15.4102 19.895 16.149 19.4684 16.8256 18.9636C16.8715 18.9293 16.9152 18.8949 16.9609 18.8581L15.314 16.9427C15.1098 17.0964 14.8965 17.241 14.6785 17.3739Z" fill="#E4E8EB"/>
<path d="M17.6999 2.82925C15.8185 1.07579 13.2976 0 10.5289 0C7.76022 0 5.23937 1.07579 3.35791 2.82925L4.86085 4.87997C6.08671 3.64998 7.70979 2.81793 9.519 2.5893V6.67426L10.5289 5.50002L11.5389 6.67426V2.5893C13.348 2.81793 14.9711 3.65016 16.197 4.88014L17.6999 2.82925Z" fill="#E4E8EB"/>
<path d="M33.3044 17.0084H36.0581L30.988 5.66948H28.3962L23.3423 17.0084H26.0312L27.0355 14.5787H32.3001L33.3044 17.0084ZM27.8779 12.5862L29.6759 8.24504L31.4739 12.5862H27.8779ZM50.5173 17.0084L47.9741 13.3638C49.4482 12.732 50.3067 11.4847 50.3067 9.7839C50.3067 7.24073 48.4115 5.66948 45.3824 5.66948H40.4742V17.0084H43.0984V13.8497H45.3824H45.512L47.6988 17.0084H50.5173ZM47.6502 9.7839C47.6502 11.015 46.8402 11.7601 45.2366 11.7601H43.0984V7.80768H45.2366C46.8402 7.80768 47.6502 8.53662 47.6502 9.7839ZM63.3846 17.0084H66.4461L61.4732 10.7234L66.1707 5.66948H63.255L58.2335 10.9664V5.66948H55.6255V17.0084H58.2335V14.1413L59.7561 12.5538L63.3846 17.0084ZM73.4639 14.9026V12.2785H78.7284V10.2375H73.4639V7.77529H79.425V5.66948H70.8559V17.0084H79.6355V14.9026H73.4639ZM87.312 17.0084H89.9362V7.80768H93.5646V5.66948H83.6835V7.80768H87.312V17.0084ZM101.863 17.2028C105.102 17.2028 106.673 15.583 106.673 13.6877C106.673 9.52472 100.081 10.9664 100.081 8.87678C100.081 8.16405 100.68 7.5809 102.235 7.5809C103.239 7.5809 104.325 7.87248 105.378 8.47182L106.188 6.4794C105.135 5.81527 103.677 5.4751 102.251 5.4751C99.0281 5.4751 97.473 7.07875 97.473 9.00637C97.473 13.218 104.066 11.7601 104.066 13.8821C104.066 14.5787 103.434 15.097 101.879 15.097C100.518 15.097 99.0929 14.6111 98.1372 13.9145L97.2463 15.8907C98.2506 16.6683 100.065 17.2028 101.863 17.2028Z" fill="#002A51"/>
</svg>
