<svg width="21" height="21" viewBox="0 0 21 21" fill="none" xmlns="http://www.w3.org/2000/svg">
<path d="M18.2563 12.5481C18.0902 12.6609 17.8962 12.7275 17.6948 12.7408C17.4935 12.7541 17.2922 12.7137 17.1122 12.6238C16.6897 12.3886 16.462 11.837 16.462 11.0854V8.78177C16.462 7.67594 16.0175 6.88915 15.274 6.67555C14.0174 6.31325 13.079 7.83005 12.7169 8.40054L10.4945 11.9452V7.61916C10.4698 6.62148 10.1406 6.02395 9.51777 5.8455C9.10622 5.72654 8.48889 5.7752 7.88803 6.67825L2.91926 14.538C2.25814 13.2916 1.91535 11.9051 1.92056 10.4986C1.92056 5.76168 5.76169 1.90885 10.4945 1.90885C15.2273 1.90885 19.0822 5.76168 19.0822 10.4986V10.523C19.0822 10.523 19.0822 10.5392 19.0822 10.5473C19.1288 11.4639 18.827 12.1939 18.2591 12.5481H18.2563ZM21 10.5014V10.4554C20.9616 4.68289 16.2644 0 10.4945 0C4.72459 0 0 4.70993 0 10.4986C0 16.2874 4.70813 21 10.4945 21C13.1484 20.9999 15.7013 19.9974 17.628 18.1989C17.8151 18.0253 17.9251 17.786 17.9344 17.533C17.9436 17.2799 17.8513 17.0335 17.6774 16.847C17.5942 16.7564 17.4936 16.6828 17.3815 16.6305C17.2693 16.5783 17.1478 16.5484 17.0238 16.5426C16.8999 16.5369 16.7761 16.5553 16.6594 16.5969C16.5427 16.6384 16.4355 16.7023 16.344 16.7849C15.5145 17.5603 14.5345 18.1625 13.4629 18.5554C12.3914 18.9483 11.2503 19.1237 10.1082 19.0712C8.96605 19.0187 7.8465 18.7393 6.8167 18.2497C5.78691 17.7602 4.86812 17.0707 4.1155 16.2225L8.58767 9.13866V12.4075C8.58767 13.9784 9.20499 14.4867 9.72354 14.6354C10.2421 14.7841 11.035 14.6813 11.8663 13.3511L14.3356 9.41174C14.4125 9.28467 14.4865 9.17652 14.5524 9.08188V11.0854C14.5524 12.5535 15.1505 13.7269 16.1986 14.3055C16.6752 14.5591 17.2122 14.6815 17.7533 14.6601C18.2945 14.6387 18.8198 14.4742 19.2742 14.1839C20.4266 13.4457 21.0549 12.1101 20.989 10.5014H21Z" fill="#17181B"/>
</svg>
