<svg width="18" height="20" viewBox="0 0 18 20" fill="none" xmlns="http://www.w3.org/2000/svg">
<path d="M14.2578 9.77758V3.90625C14.2578 2.61391 13.2064 1.5625 11.9141 1.5625H9.35832C9.03586 0.653086 8.16699 0 7.14844 0C6.12988 0 5.26102 0.653086 4.93855 1.5625H2.34375C1.05141 1.5625 0 2.61391 0 3.90625V16.0938C0 17.3861 1.05141 18.4375 2.34375 18.4375H7.39996C7.72242 19.3468 8.59094 20 9.60984 20L14.8047 19.9971C16.0971 19.9971 17.1485 18.9458 17.1485 17.6537V12.6847L14.2578 9.77758ZM14.4866 12.2236H13.4766C13.0458 12.2236 12.6953 11.8732 12.6953 11.4424V10.4222L14.4866 12.2236ZM4.80469 3.125H6.36719V2.34375C6.36719 1.91297 6.71766 1.5625 7.14844 1.5625C7.57922 1.5625 7.92969 1.91297 7.92969 2.34375V3.125H9.49219V4.64844H4.80469V3.125ZM7.26562 10.1169V16.875H2.34375C1.91297 16.875 1.5625 16.5245 1.5625 16.0938V3.90625C1.5625 3.47547 1.91297 3.125 2.34375 3.125H3.24219V6.21094H11.0547V3.125H11.9141C12.3448 3.125 12.6953 3.47547 12.6953 3.90625V8.20621L12.265 7.77344H9.60938C8.31703 7.77344 7.26562 8.82473 7.26562 10.1169ZM15.5859 17.6537C15.5859 18.0843 15.2355 18.4346 14.8043 18.4346L9.60938 18.4375C9.17859 18.4375 8.82812 18.0871 8.82812 17.6565V10.1169C8.82812 9.68629 9.17859 9.33594 9.60938 9.33594H11.1328V11.4424C11.1328 12.7348 12.1842 13.7862 13.4766 13.7862H15.5859V17.6537Z" fill="#186AB4"/>
</svg>
