<svg width="10" height="11" viewBox="0 0 10 11" fill="none" xmlns="http://www.w3.org/2000/svg">
<path d="M9.71667 5.02041L0.827778 0.070421C0.655556 -0.0252789 0.445556 -0.0230789 0.275556 0.0748209C0.104444 0.173821 0 0.35422 0 0.55002V10.45C0 10.6458 0.104444 10.8262 0.275556 10.9252C0.362222 10.9747 0.458889 11 0.555556 11C0.648889 11 0.743333 10.9769 0.827778 10.9296L9.71667 5.97961C9.89111 5.88171 10 5.69911 10 5.50001C10 5.30091 9.89111 5.11831 9.71667 5.02041Z" fill="#88C920"/>
</svg>
