<svg width="28" height="28" viewBox="0 0 28 28" fill="none" xmlns="http://www.w3.org/2000/svg">
<circle cx="13.97" cy="13.97" r="13.97" fill="white"/>
<path d="M10.1047 10.9903C10.7148 10.9903 11.2093 10.4958 11.2093 9.88559C11.2093 9.12527 11.5347 8.39817 12.1013 7.89071C12.6761 7.37591 13.4196 7.13988 14.1958 7.22575C15.4222 7.36124 16.4108 8.34984 16.5463 9.5762C16.6654 10.6576 16.1333 11.6971 15.1901 12.2244C13.7048 13.0551 12.7818 14.5912 12.7818 16.2332V17.8095C12.7818 18.4196 13.2763 18.9141 13.8865 18.9141C14.4962 18.9141 14.9911 18.4196 14.9911 17.8095V16.2332C14.9911 15.3904 15.4805 14.5934 16.2684 14.1528C17.9884 13.191 18.9593 11.2992 18.7423 9.33369C18.4941 7.08766 16.684 5.2779 14.4384 5.02978C13.0506 4.87659 11.6607 5.31932 10.6272 6.24492C9.59333 7.17095 9 8.49785 9 9.88559C9 10.4958 9.49451 10.9903 10.1047 10.9903Z" fill="#086080"/>
<path d="M13.8859 21.0117C13.5955 21.0117 13.3107 21.13 13.1053 21.3354C12.8999 21.5408 12.7812 21.826 12.7812 22.1164C12.7812 22.4081 12.8995 22.692 13.1053 22.8974C13.3107 23.1037 13.5955 23.2211 13.8859 23.2211C14.1768 23.2211 14.4616 23.1037 14.667 22.8974C14.8724 22.692 14.9906 22.4068 14.9906 22.1164C14.9906 21.826 14.8728 21.5408 14.667 21.3354C14.4616 21.13 14.1768 21.0117 13.8859 21.0117Z" fill="#086080"/>
</svg>
