<svg width="36" height="36" viewBox="0 0 36 36" fill="none" xmlns="http://www.w3.org/2000/svg">
<path d="M31.0792 0.330835L28.2083 3.20176C25.2518 1.14681 21.7254 0.000843388 17.9995 0.000843388C8.07429 0.000843388 0 8.07514 0 18.0004C0 19.7583 0.257993 21.5073 0.76798 23.1992C0.944976 23.7857 1.56446 24.1322 2.17044 23.9522C2.76593 23.7722 3.10192 23.1452 2.92342 22.5498C2.47644 21.0693 2.24994 19.5378 2.24994 18.0004C2.24994 9.3156 9.31476 2.25079 17.9995 2.25079C21.1195 2.25079 24.0819 3.16126 26.5973 4.81272L24.3294 7.08066C23.6229 7.78714 24.1254 9.00061 25.1243 9.00061H31.8742C32.4952 9.00061 32.9991 8.49662 32.9991 7.87564V1.12581C32.9991 0.12384 31.7827 -0.375647 31.0792 0.330835Z" fill="#607D8B"/>
<path d="M35.2311 12.8015C35.0526 12.2075 34.4226 11.8715 33.8286 12.0485C33.2347 12.2285 32.8972 12.8555 33.0757 13.451C33.5226 14.9314 33.7491 16.4629 33.7491 18.0003C33.7491 26.6851 26.6843 33.7499 17.9995 33.7499C14.8871 33.7499 11.9292 32.844 9.41677 31.1985L11.6742 28.9156C12.3762 28.2061 11.8722 27.0001 10.8747 27.0001H4.12491C3.82491 27.0001 3.53542 27.1201 3.32543 27.3346C3.11393 27.5476 2.99693 27.8371 2.99993 28.1371L3.07493 34.8869C3.08543 35.8874 4.3034 36.3719 4.99938 35.6654L7.81481 32.817C10.7667 34.8599 14.2841 35.9999 17.9995 35.9999C27.9248 35.9999 35.9991 27.9256 35.9991 18.0003C35.9991 16.2424 35.7411 14.4934 35.2311 12.8015Z" fill="#607D8B"/>
<path d="M25.4994 22.5002C25.4994 24.1577 22.141 25.5002 17.9996 25.5002C13.8582 25.5002 10.4998 24.1577 10.4998 22.5002V18.0004H25.4994V22.5002Z" fill="#00BCD4"/>
<path d="M25.4994 18.0004C25.4994 19.6578 22.141 21.0003 17.9996 21.0003C13.8582 21.0003 10.4998 19.6563 10.4998 18.0004V13.5005H25.4994V18.0004Z" fill="#4DD0E1"/>
<path d="M25.4994 13.5004C25.4994 15.1578 22.141 16.5003 17.9996 16.5003C13.8582 16.5003 10.4998 15.1563 10.4998 13.5004C10.4998 11.8444 13.8582 10.5005 17.9996 10.5005C22.141 10.5005 25.4994 11.8444 25.4994 13.5004Z" fill="#00BCD4"/>
<path d="M17.9995 0.000816345C8.07429 0.000816345 0 8.07511 0 18.0004C0 19.7583 0.257993 21.5073 0.76798 23.1992C0.911976 23.6807 1.35597 24.0002 1.84495 24.0002C1.95145 24.0002 2.06095 23.9852 2.16894 23.9522C2.76443 23.7722 3.10042 23.1452 2.92192 22.5497C2.47644 21.0693 2.24994 19.5378 2.24994 18.0004C2.24994 9.31558 9.31476 2.25076 17.9995 2.25076V0.000816345Z" fill="#546D79"/>
<path d="M10.8747 27.0001H4.12491C3.82491 27.0001 3.53542 27.1201 3.32543 27.3346C3.11393 27.5476 2.99693 27.8371 2.99993 28.1371L3.07493 34.8869C3.08243 35.5604 3.63742 35.9999 4.2104 35.9999C4.4894 35.9999 4.77139 35.8964 4.99938 35.6654L7.81481 32.817C10.7667 34.8599 14.2841 35.9999 17.9995 35.9999V33.75C14.8871 33.75 11.9292 32.844 9.41677 31.1985L11.6742 28.9156C12.3762 28.2061 11.8722 27.0001 10.8747 27.0001Z" fill="#546D79"/>
<path d="M10.4998 18.0004V22.5002C10.4998 24.1577 13.8582 25.5002 17.9996 25.5002V21.0003C13.8582 21.0003 10.4998 19.6563 10.4998 18.0004Z" fill="#00A4B9"/>
<path d="M10.4998 13.5005V18.0004C10.4998 19.6578 13.8582 21.0003 17.9996 21.0003V16.5004C13.8582 16.5004 10.4998 15.1564 10.4998 13.5005Z" fill="#43B5C4"/>
<path d="M17.9996 10.5005C13.8582 10.5005 10.4998 11.8444 10.4998 13.5004C10.4998 15.1578 13.8582 16.5003 17.9996 16.5003V10.5005Z" fill="#00A4B9"/>
</svg>
