<svg width="18" height="17" viewBox="0 0 18 17" fill="none" xmlns="http://www.w3.org/2000/svg">
<path d="M15.1472 15.405C12.542 17.5317 4.40753 17.5317 1.85552 15.405C-0.749639 13.2783 -0.48381 4.18686 1.85552 1.79437C4.19486 -0.598123 12.8078 -0.598123 15.1472 1.79437C17.4865 4.18686 17.7523 13.2784 15.1472 15.405Z" fill="#88C920"/>
<path d="M13.5522 8.49338C13.5522 9.02503 13.1269 9.45037 12.5952 9.45037H9.40525V12.6404C9.40525 13.172 8.9799 13.5973 8.44825 13.5973C7.91659 13.5973 7.49125 13.172 7.49125 12.6404V9.45037H4.30124C3.76958 9.45037 3.34424 9.02503 3.34424 8.49338C3.34424 7.96172 3.76958 7.53638 4.30124 7.53638H7.49121V4.3464C7.49121 3.81474 7.91655 3.3894 8.44821 3.3894C8.97987 3.3894 9.40521 3.81474 9.40521 4.3464V7.53638H12.5952C13.1269 7.53638 13.5522 7.96168 13.5522 8.49338Z" fill="#ffffff"/>
</svg>
