<svg width="23" height="23" viewBox="0 0 23 23" fill="none" xmlns="http://www.w3.org/2000/svg">
<g opacity="1">
<path d="M3.86399 14.3419L11.3225 21.1355H6.47867L3.77415 18.754L3.86399 14.3419Z" fill="#182542"/>
<path d="M0 10.5677L2.23868 12.986L2.26452 17.3613L0 15.0237V10.5677Z" fill="#182542"/>
<path d="M0 9.18799L13.485 22.6452L16.0579 22.617L22.6452 16.1149V11.4499L14.786 19.3377L3.36458 7.88775L11.1957 0.0282121L6.55907 0L0.0846328 6.55847L0 9.18799Z" fill="#182542"/>
<path d="M5.28389 8.01744L13.3298 0H15.9544L17.0218 1.15369L9.98479 8.04622L11.0809 9.14151L18.117 2.2202L20.4243 4.52759L13.532 11.5065L14.5993 12.6026L21.5779 5.71006L22.6164 6.71985L22.6452 9.28625L14.5993 17.3613L5.28389 8.01744Z" fill="#182542"/>
</g>
</svg>
