<svg width="117" height="23" viewBox="0 0 117 23" fill="none" xmlns="http://www.w3.org/2000/svg">
<path d="M30.48 15.6765H32.8709V7.38575H36.1767V5.45903H27.1742V7.38575H30.48V15.6765ZM39.8393 13.7789V11.4143H44.6357V9.5752H39.8393V7.35655H45.2703V5.45903H37.4632V15.6765H45.4622V13.7789H39.8393ZM56.5146 15.6765L54.1975 12.3923C55.5405 11.823 56.3227 10.6991 56.3227 9.1665C56.3227 6.87487 54.596 5.45903 51.8362 5.45903H47.3645V15.6765H49.7553V12.8302H51.8362H51.9543L53.9466 15.6765H56.5146ZM53.9024 9.1665C53.9024 10.2758 53.1645 10.9473 51.7034 10.9473H49.7553V7.38575H51.7034C53.1645 7.38575 53.9024 8.04258 53.9024 9.1665ZM69.8613 15.6765L69.8317 5.45903H67.8689L64.0613 11.8084L60.1946 5.45903H58.217V15.6765H60.4602V9.67737L63.4857 14.5963H64.563L67.6032 9.546L67.618 15.6765H69.8613ZM72.3123 15.6765H74.7031V5.45903H72.3123V15.6765ZM84.2683 5.45903V11.6625L79.1324 5.45903H77.1548V15.6765H79.5161V9.47302L84.6668 15.6765H86.6296V5.45903H84.2683ZM96.7924 15.6765H99.3013L94.6819 5.45903H92.3206L87.716 15.6765H90.1659L91.0809 13.487H95.8774L96.7924 15.6765ZM91.8484 11.6917L93.4865 7.77985L95.1247 11.6917H91.8484ZM100.373 15.6765H107.944V13.7497H102.764V5.45903H100.373V15.6765ZM112.617 15.8516C115.568 15.8516 117 14.392 117 12.6842C117 8.93296 110.993 10.232 110.993 8.3491C110.993 7.70687 111.539 7.1814 112.956 7.1814C113.871 7.1814 114.86 7.44413 115.819 7.9842L116.557 6.18885C115.598 5.5904 114.27 5.28387 112.971 5.28387C110.034 5.28387 108.617 6.72891 108.617 8.46587C108.617 12.2609 114.624 10.9473 114.624 12.8594C114.624 13.487 114.048 13.9541 112.632 13.9541C111.392 13.9541 110.093 13.5162 109.222 12.8886L108.411 14.6693C109.326 15.3699 110.979 15.8516 112.617 15.8516Z" fill="#182542"/>
<path d="M3.864 14.3419L11.3226 21.1355H6.47869L3.77417 18.754L3.864 14.3419Z" fill="#182542"/>
<path d="M0 10.5677L2.23868 12.986L2.26452 17.3613L0 15.0237V10.5677Z" fill="#182542"/>
<path d="M0 9.18799L13.485 22.6452L16.0579 22.617L22.6452 16.1149V11.4499L14.786 19.3377L3.36458 7.88775L11.1957 0.0282121L6.55907 0L0.0846328 6.55847L0 9.18799Z" fill="#182542"/>
<path d="M5.28394 8.01744L13.3299 0H15.9544L17.0218 1.15369L9.98483 8.04622L11.0809 9.14151L18.1171 2.2202L20.4244 4.52759L13.5321 11.5065L14.5994 12.6026L21.5779 5.71006L22.6165 6.71985L22.6452 9.28625L14.5994 17.3613L5.28394 8.01744Z" fill="#182542"/>
</svg>
