<svg width="37" height="36" viewBox="0 0 37 36" fill="none" xmlns="http://www.w3.org/2000/svg">
<path d="M32.8369 5.65891L29.4898 4.05511L3.21191 4.52798V32.8368H11.6448H30.3979C31.6695 32.8368 32.7023 31.811 32.7101 30.5394L32.8369 11.2164V5.65891Z" fill="#F9F7F8"/>
<path d="M3.69857 31.1459V5.68244H3.71978L3.70491 5.6754L5.25482 4.5482L29.6044 4.11007L29.4896 4.05505L2.08456 4.5482L0.534661 5.6754L0.549526 5.68244H0.52832V31.1459C0.52832 32.0794 1.28566 32.8367 2.21912 32.8367H5.38938C4.45591 32.8367 3.69857 32.0794 3.69857 31.1459Z" fill="#EFEDEF"/>
<path d="M31.1459 0.528313H2.92993V5.68244H32.6958H32.8367V2.21911C32.8367 1.28565 32.0794 0.528313 31.1459 0.528313Z" fill="#EE6161"/>
<path d="M5.38937 0.528313H2.21912C1.28566 0.528313 0.52832 1.28565 0.52832 2.21911V5.68244H0.66922H3.69857V2.21911C3.69857 1.28565 4.45591 0.528313 5.38937 0.528313Z" fill="#E94444"/>
<path d="M27.2177 10.0356H5.55531C5.20059 10.0356 4.91309 10.3231 4.91309 10.6778V17.267C4.91309 17.6217 5.20066 17.9092 5.55531 17.9092H27.9749L27.9608 10.7772C27.9599 10.3673 27.6275 10.0356 27.2177 10.0356Z" fill="#E5E1E5"/>
<path d="M35.478 18.0746L34.069 16.3838H15.9045V35.4716H33.5321C34.6114 35.4716 35.4857 34.5966 35.4857 33.5173V18.0746H35.478Z" fill="#F9F7F8"/>
<path d="M16.4352 33.5173V18.0746H16.4563L17.8653 16.3838H15.1882L13.7792 18.0746H13.7581V33.5173C13.7581 34.5966 14.633 35.4716 15.7123 35.4716H18.3894C17.3102 35.4716 16.4352 34.5966 16.4352 33.5173Z" fill="#EFEDEF"/>
<path d="M33.5321 13.3298H15.7125C15.6877 13.3298 15.6632 13.3308 15.6387 13.3317V18.0746H35.4857V15.2841C35.4857 14.2048 34.6114 13.3298 33.5321 13.3298Z" fill="#EE6161"/>
<path d="M18.3894 13.3298H15.7123C14.633 13.3298 13.7581 14.2048 13.7581 15.2841V18.0746H16.4352V15.2841C16.4352 14.2048 17.3102 13.3298 18.3894 13.3298Z" fill="#E94444"/>
<path d="M30.8456 26.2474H18.399C17.8014 26.2474 17.3169 25.7629 17.3169 25.1653V22.9221C17.3169 22.3244 17.8014 21.84 18.399 21.84H30.8456C31.4433 21.84 31.9277 22.3244 31.9277 22.9221V25.1653C31.9277 25.7629 31.4433 26.2474 30.8456 26.2474Z" fill="#E5E1E5"/>
<path d="M0.528376 7.6966C0.82018 7.6966 1.05675 7.46003 1.05675 7.16822V6.2106H32.3083V11.2164C32.3083 11.5082 32.5448 11.7447 32.8367 11.7447C33.1286 11.7447 33.3651 11.5082 33.3651 11.2164V2.21939C33.3651 0.9956 32.3695 0 31.1457 0H2.21932C0.9956 0 0 0.9956 0 2.21939V7.16822C0 7.46003 0.236571 7.6966 0.528376 7.6966ZM2.21932 1.05675H31.1457C31.7868 1.05675 32.3083 1.57829 32.3083 2.21939V5.15385H1.05675V2.21939C1.05675 1.57829 1.57829 1.05675 2.21932 1.05675Z" fill="black"/>
<path d="M11.6449 32.3083H2.21932C1.57822 32.3083 1.05675 31.7868 1.05675 31.1458V9.42003C1.05675 9.12823 0.82018 8.89165 0.528376 8.89165C0.236571 8.89165 0 9.12823 0 9.42003V31.1458C0 32.3696 0.9956 33.3651 2.21932 33.3651H11.6449C11.9367 33.3651 12.1733 33.1285 12.1733 32.8367C12.1733 32.5449 11.9367 32.3083 11.6449 32.3083Z" fill="black"/>
<path d="M33.5318 12.8014H15.7125C14.3436 12.8014 13.23 13.9151 13.23 15.284V22.1489C13.23 22.4408 13.4666 22.6773 13.7584 22.6773C14.0502 22.6773 14.2867 22.4408 14.2867 22.1489V18.603H34.9576V33.5175C34.9576 34.3036 34.318 34.9432 33.5319 34.9432H15.7125C14.9263 34.9432 14.2867 34.3036 14.2867 33.5175V24.4007C14.2867 24.1089 14.0502 23.8724 13.7584 23.8724C13.4666 23.8724 13.23 24.1089 13.23 24.4007V33.5175C13.23 34.8864 14.3437 36 15.7125 36H33.5318C34.9007 36 36.0143 34.8863 36.0143 33.5175V15.284C36.0144 13.9151 34.9007 12.8014 33.5318 12.8014ZM14.2867 17.5462V15.284C14.2867 14.4978 14.9263 13.8582 15.7125 13.8582H33.5318C34.3179 13.8582 34.9576 14.4978 34.9576 15.284V17.5462H14.2867Z" fill="black"/>
<path d="M3.23785 3.60705H3.63462C3.92643 3.60705 4.163 3.37048 4.163 3.07868C4.163 2.78687 3.92643 2.5503 3.63462 2.5503H3.23785C2.94604 2.5503 2.70947 2.78687 2.70947 3.07868C2.70947 3.37048 2.94604 3.60705 3.23785 3.60705Z" fill="black"/>
<path d="M6.9129 3.60705H7.30967C7.60148 3.60705 7.83805 3.37048 7.83805 3.07868C7.83805 2.78687 7.60148 2.5503 7.30967 2.5503H6.9129C6.62109 2.5503 6.38452 2.78687 6.38452 3.07868C6.38452 3.37048 6.62109 3.60705 6.9129 3.60705Z" fill="black"/>
<path d="M10.5882 3.60705H10.985C11.2768 3.60705 11.5133 3.37048 11.5133 3.07868C11.5133 2.78687 11.2768 2.5503 10.985 2.5503H10.5882C10.2964 2.5503 10.0598 2.78687 10.0598 3.07868C10.0598 3.37048 10.2964 3.60705 10.5882 3.60705Z" fill="black"/>
<path d="M30.8454 25.719H28.6206C28.3287 25.719 28.0922 25.9556 28.0922 26.2474C28.0922 26.5392 28.3287 26.7758 28.6206 26.7758H30.8454C31.7335 26.7758 32.4559 26.0533 32.4559 25.1653V22.9221C32.4559 22.034 31.7335 21.3116 30.8454 21.3116H18.3989C17.5109 21.3116 16.7883 22.034 16.7883 22.9221V25.1653C16.7883 26.0533 17.5108 26.7758 18.3989 26.7758H26.3688C26.6607 26.7758 26.8972 26.5392 26.8972 26.2474C26.8972 25.9556 26.6607 25.719 26.3688 25.719H18.3989C18.0936 25.719 17.8451 25.4706 17.8451 25.1653V22.9221C17.8451 22.6167 18.0936 22.3683 18.3989 22.3683H30.8455C31.1508 22.3683 31.3993 22.6167 31.3993 22.9221V25.1653C31.3993 25.4706 31.1508 25.719 30.8454 25.719Z" fill="black"/>
<path d="M5.55536 10.5639H27.9593C28.2512 10.5639 28.4877 10.3274 28.4877 10.0355C28.4877 9.74374 28.2512 9.50717 27.9593 9.50717H5.55536C4.9099 9.50717 4.38477 10.0323 4.38477 10.6778V17.267C4.38477 17.9124 4.9099 18.4376 5.55536 18.4376H10.3155C10.6073 18.4376 10.8438 18.201 10.8438 17.9092C10.8438 17.6174 10.6073 17.3808 10.3155 17.3808H5.55536C5.49259 17.3808 5.44152 17.3297 5.44152 17.267V10.6778C5.44152 10.615 5.49259 10.5639 5.55536 10.5639Z" fill="black"/>
<path d="M10.2976 20.6775H4.91314C4.62134 20.6775 4.38477 20.9141 4.38477 21.2059C4.38477 21.4977 4.62134 21.7343 4.91314 21.7343H10.2976C10.5894 21.7343 10.826 21.4977 10.826 21.2059C10.826 20.9141 10.5894 20.6775 10.2976 20.6775Z" fill="black"/>
<path d="M10.2976 24.6384H4.91314C4.62134 24.6384 4.38477 24.875 4.38477 25.1668C4.38477 25.4586 4.62134 25.6952 4.91314 25.6952H10.2976C10.5894 25.6952 10.826 25.4586 10.826 25.1668C10.826 24.875 10.5894 24.6384 10.2976 24.6384Z" fill="black"/>
<path d="M17.3167 31.3384H31.9276C32.2195 31.3384 32.456 31.1018 32.456 30.81C32.456 30.5182 32.2195 30.2816 31.9276 30.2816H17.3167C17.0249 30.2816 16.7883 30.5182 16.7883 30.81C16.7883 31.1018 17.0249 31.3384 17.3167 31.3384Z" fill="black"/>
</svg>
