<svg width="14" height="12" viewBox="0 0 14 12" fill="none" xmlns="http://www.w3.org/2000/svg">
<path d="M0.139124 6.34062L5.463 11.8403C5.56151 11.9423 5.69966 12 5.84436 12L8.13209 12C8.58702 12 8.82327 11.4793 8.51345 11.1595L5.66369 8.21753H13.1825C13.6338 8.21753 14 7.86593 14 7.4327L14 4.56691C14 4.13368 13.6338 3.78208 13.1825 3.78208L5.6641 3.78208L8.51385 0.84055C8.82368 0.520733 8.58743 0 8.1325 0L5.84477 0C5.70007 0 5.56192 0.0576849 5.46341 0.159713L0.139534 5.65978C-0.0464439 5.85167 -0.0464449 6.14873 0.139124 6.34062Z" fill="white"/>
</svg>
